{
  "@main": {
    "traces": [
      {
        "trace": [
          "%0",
          "%26"
        ],
        "nb_execution": 9
      },
      {
        "trace": [
          "%0",
          "%8",
          "%22",
          "%25",
          "%26"
        ],
        "nb_execution": 3
      },
      {
        "trace": [
          "%0",
          "%8",
          "%13",
          "%25",
          "%26"
        ],
        "nb_execution": 1
      }
    ]
  }
}