%!PS-Adobe-3.0 EPSF-3.0
%%Creator: graphviz version 2.43.0 (0)
%%Title: @main
%%Pages: 1
%%BoundingBox: 36 36 530 854
%%EndComments
save
%%BeginProlog
/DotDict 200 dict def
DotDict begin

/setupLatin1 {
mark
/EncodingVector 256 array def
 EncodingVector 0

ISOLatin1Encoding 0 255 getinterval putinterval
EncodingVector 45 /hyphen put

% Set up ISO Latin 1 character encoding
/starnetISO {
        dup dup findfont dup length dict begin
        { 1 index /FID ne { def }{ pop pop } ifelse
        } forall
        /Encoding EncodingVector def
        currentdict end definefont
} def
/Times-Roman starnetISO def
/Times-Italic starnetISO def
/Times-Bold starnetISO def
/Times-BoldItalic starnetISO def
/Helvetica starnetISO def
/Helvetica-Oblique starnetISO def
/Helvetica-Bold starnetISO def
/Helvetica-BoldOblique starnetISO def
/Courier starnetISO def
/Courier-Oblique starnetISO def
/Courier-Bold starnetISO def
/Courier-BoldOblique starnetISO def
cleartomark
} bind def

%%BeginResource: procset graphviz 0 0
/coord-font-family /Times-Roman def
/default-font-family /Times-Roman def
/coordfont coord-font-family findfont 8 scalefont def

/InvScaleFactor 1.0 def
/set_scale {
       dup 1 exch div /InvScaleFactor exch def
       scale
} bind def

% styles
/solid { [] 0 setdash } bind def
/dashed { [9 InvScaleFactor mul dup ] 0 setdash } bind def
/dotted { [1 InvScaleFactor mul 6 InvScaleFactor mul] 0 setdash } bind def
/invis {/fill {newpath} def /stroke {newpath} def /show {pop newpath} def} bind def
/bold { 2 setlinewidth } bind def
/filled { } bind def
/unfilled { } bind def
/rounded { } bind def
/diagonals { } bind def
/tapered { } bind def

% hooks for setting color 
/nodecolor { sethsbcolor } bind def
/edgecolor { sethsbcolor } bind def
/graphcolor { sethsbcolor } bind def
/nopcolor {pop pop pop} bind def

/beginpage {	% i j npages
	/npages exch def
	/j exch def
	/i exch def
	/str 10 string def
	npages 1 gt {
		gsave
			coordfont setfont
			0 0 moveto
			(\() show i str cvs show (,) show j str cvs show (\)) show
		grestore
	} if
} bind def

/set_font {
	findfont exch
	scalefont setfont
} def

% draw text fitted to its expected width
/alignedtext {			% width text
	/text exch def
	/width exch def
	gsave
		width 0 gt {
			[] 0 setdash
			text stringwidth pop width exch sub text length div 0 text ashow
		} if
	grestore
} def

/boxprim {				% xcorner ycorner xsize ysize
		4 2 roll
		moveto
		2 copy
		exch 0 rlineto
		0 exch rlineto
		pop neg 0 rlineto
		closepath
} bind def

/ellipse_path {
	/ry exch def
	/rx exch def
	/y exch def
	/x exch def
	matrix currentmatrix
	newpath
	x y translate
	rx ry scale
	0 0 1 0 360 arc
	setmatrix
} bind def

/endpage { showpage } bind def
/showpage { } def

/layercolorseq
	[	% layer color sequence - darkest to lightest
		[0 0 0]
		[.2 .8 .8]
		[.4 .8 .8]
		[.6 .8 .8]
		[.8 .8 .8]
	]
def

/layerlen layercolorseq length def

/setlayer {/maxlayer exch def /curlayer exch def
	layercolorseq curlayer 1 sub layerlen mod get
	aload pop sethsbcolor
	/nodecolor {nopcolor} def
	/edgecolor {nopcolor} def
	/graphcolor {nopcolor} def
} bind def

/onlayer { curlayer ne {invis} if } def

/onlayers {
	/myupper exch def
	/mylower exch def
	curlayer mylower lt
	curlayer myupper gt
	or
	{invis} if
} def

/curlayer 0 def

%%EndResource
%%EndProlog
%%BeginSetup
14 default-font-family set_font
% /arrowlength 10 def
% /arrowwidth 5 def

% make sure pdfmark is harmless for PS-interpreters other than Distiller
/pdfmark where {pop} {userdict /pdfmark /cleartomark load put} ifelse
% make '<<' and '>>' safe on PS Level 1 devices
/languagelevel where {pop languagelevel}{1} ifelse
2 lt {
    userdict (<<) cvn ([) cvn load put
    userdict (>>) cvn ([) cvn load put
} if

%%EndSetup
setupLatin1
%%Page: 1 1
%%PageBoundingBox: 36 36 530 854
%%PageOrientation: Portrait
0 0 1 beginpage
gsave
36 36 494 818 boxprim clip newpath
1 1 set_scale 0 rotate 40 40 translate
0 0 0 graphcolor
14 /Times-Roman set_font
200 7.8 moveto 86 (CFG @main) alignedtext
% 0
gsave
1 setlinewidth
0 0 0 nodecolor
newpath 128.5 513.5 moveto
128.5 699.5 lineto
355.5 699.5 lineto
355.5 513.5 lineto
closepath stroke
0 0 0 nodecolor
15 /Times-Roman set_font
210 684.5 moveto 64 (%0\(%0\)) alignedtext
1 setlinewidth
0 0 0 nodecolor
newpath 128.5 674.5 moveto
355.5 674.5 lineto
stroke
0 0 0 nodecolor
7 /Times-Roman set_font
171.5 664.9 moveto 49 (Cost all NVM) alignedtext
1 setlinewidth
0 0 0 nodecolor
newpath 263.5 658.5 moveto
263.5 674.5 lineto
stroke
0 0 0 nodecolor
7 /Times-Roman set_font
307 664.9 moveto 5 (7) alignedtext
1 setlinewidth
0 0 0 nodecolor
newpath 128.5 658.5 moveto
355.5 658.5 lineto
stroke
0 0 0 nodecolor
7 /Times-Roman set_font
197.5 648.9 moveto 89 (Variables and nb_access) alignedtext
1 setlinewidth
0 0 0 nodecolor
newpath 128.5 642.5 moveto
355.5 642.5 lineto
stroke
0 0 0 nodecolor
7 /Times-Roman set_font
168.5 632.9 moveto 61 (main.first_alloca) alignedtext
1 setlinewidth
0 0 0 nodecolor
newpath 269.5 626.5 moveto
269.5 642.5 lineto
stroke
0 0 0 nodecolor
7 /Times-Roman set_font
310 632.9 moveto 5 (1) alignedtext
1 setlinewidth
0 0 0 nodecolor
newpath 128.5 626.5 moveto
355.5 626.5 lineto
stroke
0 0 0 nodecolor
7 /Times-Roman set_font
181 616.9 moveto 12 (@a) alignedtext
1 setlinewidth
0 0 0 nodecolor
newpath 245.5 610.5 moveto
245.5 626.5 lineto
stroke
0 0 0 nodecolor
7 /Times-Roman set_font
298 616.9 moveto 5 (1) alignedtext
1 setlinewidth
0 0 0 nodecolor
newpath 128.5 610.5 moveto
355.5 610.5 lineto
stroke
0 0 0 nodecolor
7 /Times-Roman set_font
215.5 601.9 moveto 53 ( Instructions ) alignedtext
1 setlinewidth
0 0 0 nodecolor
newpath 128.5 594.5 moveto
355.5 594.5 lineto
stroke
0 0 0 nodecolor
7 /Times-Roman set_font
186 584.9 moveto 112 ([%0]  %1 = alloca int 16bit x 1) alignedtext
1 setlinewidth
0 0 0 nodecolor
newpath 128.5 578.5 moveto
355.5 578.5 lineto
stroke
0 0 0 nodecolor
7 /Times-Roman set_font
136.5 568.9 moveto 211 (store Value: \(int 16bit\) 0 in Value: \(int 16bit*\) %1 \($NVM\)) alignedtext
1 setlinewidth
0 0 0 nodecolor
newpath 128.5 562.5 moveto
355.5 562.5 lineto
stroke
0 0 0 nodecolor
7 /Times-Roman set_font
165.5 552.9 moveto 153 (%2 = load  Value: \(int 16bit*\) @a \($NVM\)) alignedtext
1 setlinewidth
0 0 0 nodecolor
newpath 128.5 546.5 moveto
355.5 546.5 lineto
stroke
0 0 0 nodecolor
7 /Times-Roman set_font
136.5 536.9 moveto 211 (%3 = cmp sgt: Value: \(int 16bit\) %2 vs Value: \(int 16bit\) 2) alignedtext
1 setlinewidth
0 0 0 nodecolor
newpath 128.5 530.5 moveto
355.5 530.5 lineto
stroke
0 0 0 nodecolor
7 /Times-Roman set_font
204.5 520.4 moveto 75 (branch %3 %20 %40) alignedtext
grestore
% 4
gsave
1 setlinewidth
0 0 0 nodecolor
newpath 0 307.5 moveto
0 461.5 lineto
234 461.5 lineto
234 307.5 lineto
closepath stroke
0 0 0 nodecolor
15 /Times-Roman set_font
80 446.5 moveto 74 (%20\(%4\)) alignedtext
1 setlinewidth
0 0 0 nodecolor
newpath 0 436.5 moveto
234 436.5 lineto
stroke
0 0 0 nodecolor
7 /Times-Roman set_font
45 426.9 moveto 49 (Cost all NVM) alignedtext
1 setlinewidth
0 0 0 nodecolor
newpath 139 420.5 moveto
139 436.5 lineto
stroke
0 0 0 nodecolor
7 /Times-Roman set_font
184 426.9 moveto 5 (6) alignedtext
1 setlinewidth
0 0 0 nodecolor
newpath 0 420.5 moveto
234 420.5 lineto
stroke
0 0 0 nodecolor
7 /Times-Roman set_font
72.5 410.9 moveto 89 (Variables and nb_access) alignedtext
1 setlinewidth
0 0 0 nodecolor
newpath 0 404.5 moveto
234 404.5 lineto
stroke
0 0 0 nodecolor
7 /Times-Roman set_font
54 394.9 moveto 12 (@a) alignedtext
1 setlinewidth
0 0 0 nodecolor
newpath 120 388.5 moveto
120 404.5 lineto
stroke
0 0 0 nodecolor
7 /Times-Roman set_font
174.5 394.9 moveto 5 (2) alignedtext
1 setlinewidth
0 0 0 nodecolor
newpath 0 388.5 moveto
234 388.5 lineto
stroke
0 0 0 nodecolor
7 /Times-Roman set_font
90.5 379.9 moveto 53 ( Instructions ) alignedtext
1 setlinewidth
0 0 0 nodecolor
newpath 0 372.5 moveto
234 372.5 lineto
stroke
0 0 0 nodecolor
7 /Times-Roman set_font
27.5 362.9 moveto 179 ([%20]  %5 = load  Value: \(int 16bit*\) @a \($NVM\)) alignedtext
1 setlinewidth
0 0 0 nodecolor
newpath 0 356.5 moveto
234 356.5 lineto
stroke
0 0 0 nodecolor
7 /Times-Roman set_font
23 346.9 moveto 188 (%6 = add Value: \(int 16bit\) %5, Value: \(int 16bit\) -1) alignedtext
1 setlinewidth
0 0 0 nodecolor
newpath 0 340.5 moveto
234 340.5 lineto
stroke
0 0 0 nodecolor
7 /Times-Roman set_font
8 330.9 moveto 218 (store Value: \(int 16bit\) %6 in Value: \(int 16bit*\) @a \($NVM\)) alignedtext
1 setlinewidth
0 0 0 nodecolor
newpath 0 324.5 moveto
234 324.5 lineto
stroke
0 0 0 nodecolor
7 /Times-Roman set_font
73.5 314.4 moveto 87 (branch None %60 None) alignedtext
grestore
% 0->4
gsave
1 setlinewidth
0 0 0 edgecolor
newpath 189.713 513.4749 moveto
180.8612 497.8957 171.7285 481.8221 163.0511 466.55 curveto
stroke
0 0 0 edgecolor
newpath 156.5203 465.1771 moveto
165.2149 460.2369 lineto
166.203 461.9758 lineto
157.5084 466.916 lineto
closepath fill
1 setlinewidth
solid
0 0 0 edgecolor
newpath 156.5203 465.1771 moveto
165.2149 460.2369 lineto
166.203 461.9758 lineto
157.5084 466.916 lineto
closepath stroke
1 setlinewidth
solid
0 0 0 edgecolor
newpath 160.3736 461.8375 moveto
162.8437 466.1848 lineto
stroke
0 0 0 edgecolor
14 /Times-Roman set_font
176 483.8 moveto 20 (C1) alignedtext
grestore
% 7
gsave
1 setlinewidth
0 0 0 nodecolor
newpath 252 307.5 moveto
252 461.5 lineto
486 461.5 lineto
486 307.5 lineto
closepath stroke
0 0 0 nodecolor
15 /Times-Roman set_font
332 446.5 moveto 74 (%40\(%7\)) alignedtext
1 setlinewidth
0 0 0 nodecolor
newpath 252 436.5 moveto
486 436.5 lineto
stroke
0 0 0 nodecolor
7 /Times-Roman set_font
297 426.9 moveto 49 (Cost all NVM) alignedtext
1 setlinewidth
0 0 0 nodecolor
newpath 391 420.5 moveto
391 436.5 lineto
stroke
0 0 0 nodecolor
7 /Times-Roman set_font
436 426.9 moveto 5 (5) alignedtext
1 setlinewidth
0 0 0 nodecolor
newpath 252 420.5 moveto
486 420.5 lineto
stroke
0 0 0 nodecolor
7 /Times-Roman set_font
324.5 410.9 moveto 89 (Variables and nb_access) alignedtext
1 setlinewidth
0 0 0 nodecolor
newpath 252 404.5 moveto
486 404.5 lineto
stroke
0 0 0 nodecolor
7 /Times-Roman set_font
306 394.9 moveto 12 (@a) alignedtext
1 setlinewidth
0 0 0 nodecolor
newpath 372 388.5 moveto
372 404.5 lineto
stroke
0 0 0 nodecolor
7 /Times-Roman set_font
426.5 394.9 moveto 5 (2) alignedtext
1 setlinewidth
0 0 0 nodecolor
newpath 252 388.5 moveto
486 388.5 lineto
stroke
0 0 0 nodecolor
7 /Times-Roman set_font
342.5 379.9 moveto 53 ( Instructions ) alignedtext
1 setlinewidth
0 0 0 nodecolor
newpath 252 372.5 moveto
486 372.5 lineto
stroke
0 0 0 nodecolor
7 /Times-Roman set_font
279.5 362.9 moveto 179 ([%40]  %8 = load  Value: \(int 16bit*\) @a \($NVM\)) alignedtext
1 setlinewidth
0 0 0 nodecolor
newpath 252 356.5 moveto
486 356.5 lineto
stroke
0 0 0 nodecolor
7 /Times-Roman set_font
276 346.9 moveto 186 (%9 = add Value: \(int 16bit\) %8, Value: \(int 16bit\) 1) alignedtext
1 setlinewidth
0 0 0 nodecolor
newpath 252 340.5 moveto
486 340.5 lineto
stroke
0 0 0 nodecolor
7 /Times-Roman set_font
260 330.9 moveto 218 (store Value: \(int 16bit\) %9 in Value: \(int 16bit*\) @a \($NVM\)) alignedtext
1 setlinewidth
0 0 0 nodecolor
newpath 252 324.5 moveto
486 324.5 lineto
stroke
0 0 0 nodecolor
7 /Times-Roman set_font
307 314.4 moveto 124 (branch None %60 None [Useless]) alignedtext
grestore
% 0->7
gsave
1 setlinewidth
0 0 0 edgecolor
newpath 295.1236 513.4749 moveto
304.117 497.8957 313.3959 481.8221 322.2121 466.55 curveto
stroke
0 0 0 edgecolor
newpath 320.1022 460.2038 moveto
328.7627 465.2034 lineto
327.7628 466.9355 lineto
319.1023 461.9359 lineto
closepath fill
1 setlinewidth
solid
0 0 0 edgecolor
newpath 320.1022 460.2038 moveto
328.7627 465.2034 lineto
327.7628 466.9355 lineto
319.1023 461.9359 lineto
closepath stroke
1 setlinewidth
solid
0 0 0 edgecolor
newpath 324.9324 461.8375 moveto
322.4326 466.1678 lineto
stroke
0 0 0 edgecolor
14 /Times-Roman set_font
313 483.8 moveto 20 (C2) alignedtext
grestore
% 10
gsave
1 setlinewidth
0 0 0 nodecolor
newpath 142 133.5 moveto
142 255.5 lineto
342 255.5 lineto
342 133.5 lineto
closepath stroke
0 0 0 nodecolor
15 /Times-Roman set_font
199.5 240.5 moveto 85 (%60\(%10\)) alignedtext
1 setlinewidth
0 0 0 nodecolor
newpath 142 230.5 moveto
342 230.5 lineto
stroke
0 0 0 nodecolor
7 /Times-Roman set_font
177 220.9 moveto 49 (Cost all NVM) alignedtext
1 setlinewidth
0 0 0 nodecolor
newpath 261 214.5 moveto
261 230.5 lineto
stroke
0 0 0 nodecolor
7 /Times-Roman set_font
296.5 220.9 moveto 10 (10) alignedtext
1 setlinewidth
0 0 0 nodecolor
newpath 142 214.5 moveto
342 214.5 lineto
stroke
0 0 0 nodecolor
7 /Times-Roman set_font
197.5 204.9 moveto 89 (Variables and nb_access) alignedtext
1 setlinewidth
0 0 0 nodecolor
newpath 142 198.5 moveto
342 198.5 lineto
stroke
0 0 0 nodecolor
7 /Times-Roman set_font
187.5 188.9 moveto 12 (@a) alignedtext
1 setlinewidth
0 0 0 nodecolor
newpath 245 182.5 moveto
245 198.5 lineto
stroke
0 0 0 nodecolor
7 /Times-Roman set_font
291 188.9 moveto 5 (1) alignedtext
1 setlinewidth
0 0 0 nodecolor
newpath 142 182.5 moveto
342 182.5 lineto
stroke
0 0 0 nodecolor
7 /Times-Roman set_font
215.5 173.9 moveto 53 ( Instructions ) alignedtext
1 setlinewidth
0 0 0 nodecolor
newpath 142 166.5 moveto
342 166.5 lineto
stroke
0 0 0 nodecolor
7 /Times-Roman set_font
150 156.9 moveto 184 ([%60]  %11 = load  Value: \(int 16bit*\) @a \($NVM\)) alignedtext
1 setlinewidth
0 0 0 nodecolor
newpath 142 150.5 moveto
342 150.5 lineto
stroke
0 0 0 nodecolor
7 /Times-Roman set_font
174 140.4 moveto 136 (return Value: \(int 16bit\) %11 \($NVM\)) alignedtext
grestore
% 4->10
gsave
1 setlinewidth
0 0 0 edgecolor
newpath 167.6621 307.3042 moveto
178.1163 291.5811 189.0292 275.1681 199.1723 259.9128 curveto
stroke
0 0 0 edgecolor
newpath 197.2944 253.7066 moveto
205.6218 259.2435 lineto
204.5144 260.9089 lineto
196.187 255.3721 lineto
closepath fill
1 setlinewidth
solid
0 0 0 edgecolor
newpath 197.2944 253.7066 moveto
205.6218 259.2435 lineto
204.5144 260.9089 lineto
196.187 255.3721 lineto
closepath stroke
1 setlinewidth
solid
0 0 0 edgecolor
newpath 202.0118 255.6423 moveto
199.2433 259.806 lineto
stroke
0 0 0 edgecolor
14 /Times-Roman set_font
187 277.8 moveto 20 (C4) alignedtext
grestore
% 7->10
gsave
1 setlinewidth
0 0 0 edgecolor
newpath 317.5273 307.3042 moveto
306.9058 291.5811 295.8183 275.1681 285.5129 259.9128 curveto
stroke
0 0 0 edgecolor
newpath 279.0446 259.2699 moveto
287.3311 253.672 lineto
288.4506 255.3293 lineto
280.1641 260.9271 lineto
closepath fill
1 setlinewidth
solid
0 0 0 edgecolor
newpath 279.0446 259.2699 moveto
287.3311 253.672 lineto
288.4506 255.3293 lineto
280.1641 260.9271 lineto
closepath stroke
1 setlinewidth
solid
0 0 0 edgecolor
newpath 282.628 255.6423 moveto
285.427 259.7855 lineto
stroke
0 0 0 edgecolor
14 /Times-Roman set_font
301 277.8 moveto 20 (C5) alignedtext
grestore
% END_main
gsave
1 setlinewidth
0 0 0 nodecolor
newpath 158.5 23.5 moveto
158.5 81.5 lineto
325.5 81.5 lineto
325.5 23.5 lineto
closepath stroke
0 0 0 nodecolor
15 /Times-Roman set_font
166.5 66.5 moveto 151 (%41\(%END_main\)) alignedtext
1 setlinewidth
0 0 0 nodecolor
newpath 158.5 56.5 moveto
325.5 56.5 lineto
stroke
0 0 0 nodecolor
7 /Times-Roman set_font
186.5 46.9 moveto 49 (Cost all NVM) alignedtext
1 setlinewidth
0 0 0 nodecolor
newpath 263.5 40.5 moveto
263.5 56.5 lineto
stroke
0 0 0 nodecolor
7 /Times-Roman set_font
292 46.9 moveto 5 (0) alignedtext
1 setlinewidth
0 0 0 nodecolor
newpath 158.5 40.5 moveto
325.5 40.5 lineto
stroke
0 0 0 nodecolor
7 /Times-Roman set_font
215.5 31.4 moveto 53 ( Instructions ) alignedtext
grestore
% 10->END_main
gsave
1 setlinewidth
0 0 0 edgecolor
newpath 242 133.3149 moveto
242 117.3417 242 100.6729 242 86.7247 curveto
stroke
0 0 0 edgecolor
newpath 237 82.7154 moveto
247 82.7152 lineto
247.0001 84.7152 lineto
237.0001 84.7154 lineto
closepath fill
1 setlinewidth
solid
0 0 0 edgecolor
newpath 237 82.7154 moveto
247 82.7152 lineto
247.0001 84.7152 lineto
237.0001 84.7154 lineto
closepath stroke
1 setlinewidth
solid
0 0 0 edgecolor
newpath 242 81.7153 moveto
242.0001 86.7153 lineto
stroke
0 0 0 edgecolor
14 /Times-Roman set_font
242 103.8 moveto 20 (C6) alignedtext
grestore
% START_main
gsave
1 setlinewidth
0 0 0 nodecolor
newpath 149 751.5 moveto
149 809.5 lineto
335 809.5 lineto
335 751.5 lineto
closepath stroke
0 0 0 nodecolor
15 /Times-Roman set_font
157 794.5 moveto 170 (%21\(%START_main\)) alignedtext
1 setlinewidth
0 0 0 nodecolor
newpath 149 784.5 moveto
335 784.5 lineto
stroke
0 0 0 nodecolor
7 /Times-Roman set_font
182 774.9 moveto 49 (Cost all NVM) alignedtext
1 setlinewidth
0 0 0 nodecolor
newpath 264 768.5 moveto
264 784.5 lineto
stroke
0 0 0 nodecolor
7 /Times-Roman set_font
297 774.9 moveto 5 (0) alignedtext
1 setlinewidth
0 0 0 nodecolor
newpath 149 768.5 moveto
335 768.5 lineto
stroke
0 0 0 nodecolor
7 /Times-Roman set_font
215.5 759.4 moveto 53 ( Instructions ) alignedtext
grestore
% START_main->0
gsave
1 setlinewidth
0 0 0 edgecolor
newpath 242 751.4824 moveto
242 738.456 242 722.1075 242 705.1431 curveto
stroke
0 0 0 edgecolor
newpath 237 700.8617 moveto
247 700.8615 lineto
247.0001 702.8615 lineto
237.0001 702.8617 lineto
closepath fill
1 setlinewidth
solid
0 0 0 edgecolor
newpath 237 700.8617 moveto
247 700.8615 lineto
247.0001 702.8615 lineto
237.0001 702.8617 lineto
closepath stroke
1 setlinewidth
solid
0 0 0 edgecolor
newpath 242 699.8616 moveto
242.0001 704.8616 lineto
stroke
0 0 0 edgecolor
14 /Times-Roman set_font
242 721.8 moveto 20 (C3) alignedtext
grestore
endpage
showpage
grestore
%%PageTrailer
%%EndPage: 1
%%Trailer
end
restore
%%EOF
