strict digraph "@f" {
	graph [bb="0,0,468,795",
		label="CFG @f",
		lheight=0.21,
		lp="234,11.5",
		lwidth=0.74,
		name="@f"
	];
	node [fontsize="7pt",
		label="\N",
		shape=record
	];
	edge [arrowhead=none];
	0	[color=darkgreen,
		height=6.3611,
		label=<{ <FONT POINT-SIZE="15.0"><B>%0(%0)</B></FONT>| { Cost all NVM | 35}| { Final cost | 24}| { Energy left | 11}| { Energy to leave | 29}| { Variables and nb_access }| {@a|11 (VM)}|<B> Instructions </B>|[%0]  call @checkpoint([]) ($NVM)|Value: (int 16bit) %tmp0 = load  Value: (int 16bit*) @a ($NVM)|store Value: (int 16bit) %tmp0 in Value: (int 16bit*) SGST-0x0 ($VM)|%1 = load  Value: (int 16bit*) SGST-0x0 ($VM)|%2 = add Value: (int 16bit) %1, Value: (int 16bit) 1|store Value: (int 16bit) %2 in Value: (int 16bit*) SGST-0x0 ($VM)|%3 = load  Value: (int 16bit*) SGST-0x0 ($VM)|%4 = add Value: (int 16bit) %3, Value: (int 16bit) 1|store Value: (int 16bit) %4 in Value: (int 16bit*) SGST-0x0 ($VM)|%5 = load  Value: (int 16bit*) SGST-0x0 ($VM)|%6 = add Value: (int 16bit) %5, Value: (int 16bit) 1|store Value: (int 16bit) %6 in Value: (int 16bit*) SGST-0x0 ($VM)|%7 = load  Value: (int 16bit*) SGST-0x0 ($VM)|%8 = add Value: (int 16bit) %7, Value: (int 16bit) 1|store Value: (int 16bit) %8 in Value: (int 16bit*) SGST-0x0 ($VM)|%9 = load  Value: (int 16bit*) SGST-0x0 ($VM)|%10 = add Value: (int 16bit) %9, Value: (int 16bit) 1|store Value: (int 16bit) %10 in Value: (int 16bit*) SGST-0x0 ($VM)|%11 = load  Value: (int 16bit*) SGST-0x0 ($VM)|return Value: (int 16bit) %11 ($NVM)}>,
		pos="130.5,409",
		rects="0,612.5,261,637.5 0,596.5,148,612.5 148,596.5,261,612.5 0,580.5,142,596.5 142,580.5,261,596.5 0,564.5,145,580.5 145,564.5,261,580.5 \
0,548.5,154,564.5 154,548.5,261,564.5 0,532.5,261,548.5 0,516.5,122,532.5 122,516.5,261,532.5 0,500.5,261,516.5 0,484.5,261,500.5 \
0,468.5,261,484.5 0,452.5,261,468.5 0,436.5,261,452.5 0,420.5,261,436.5 0,404.5,261,420.5 0,388.5,261,404.5 0,372.5,261,388.5 0,\
356.5,261,372.5 0,340.5,261,356.5 0,324.5,261,340.5 0,308.5,261,324.5 0,292.5,261,308.5 0,276.5,261,292.5 0,260.5,261,276.5 0,244.5,\
261,260.5 0,228.5,261,244.5 0,212.5,261,228.5 0,196.5,261,212.5 0,180.5,261,196.5",
		width=3.625];
	41	[color=darkgreen,
		height=1.4722,
		label=<{ <FONT POINT-SIZE="15.0"><B>%41(%END_f)</B></FONT>| { Cost all NVM | 0}| { Final cost | 0}| { Energy left | 11}| { Energy to leave | 5}|<B> Instructions </B>}>,
		pos="130.5,76",
		rects="65,103.5,196,128.5 65,87.5,151,103.5 151,87.5,196,103.5 65,71.5,145,87.5 145,71.5,196,87.5 65,55.5,145,71.5 145,55.5,196,71.5 65,\
39.5,157,55.5 157,39.5,196,55.5 65,23.5,196,39.5",
		width=1.8194];
	0 -> 41	[arrowhead=normal,
		checkpoint="C2<DISABLED>",
		label=C2,
		lp="140,154.5",
		pos="e,130.5,128.71 130.5,180.37 130.5,165.62 130.5,151.64 130.5,139"];
	21	[color=coral,
		height=1.4722,
		label=<{ <FONT POINT-SIZE="15.0"><B>%21(%START_f)</B></FONT>| { Cost all NVM | 0}| { Final cost | 0}| { Energy left | 38}| { Energy to leave | 2}|<B> Instructions </B>}>,
		pos="130.5,742",
		rects="56.5,769.5,204.5,794.5 56.5,753.5,150.5,769.5 150.5,753.5,204.5,769.5 56.5,737.5,144.5,753.5 144.5,737.5,204.5,753.5 56.5,721.5,\
145.5,737.5 145.5,721.5,204.5,737.5 56.5,705.5,156.5,721.5 156.5,705.5,204.5,721.5 56.5,689.5,204.5,705.5",
		width=2.0556];
	21 -> 0	[arrowhead=diamond,
		checkpoint="C1<ACTIVE>",
		label=C1,
		lp="140,663.5",
		pos="e,130.5,637.52 130.5,689.28 130.5,677.42 130.5,664.05 130.5,649.74"];
	coral	[color=coral,
		height=0.51389,
		label="{ Memory allocation coral}",
		pos="274.5,742",
		rects="222.5,724,326.5,760",
		type=record,
		width=1.4444];
	darkgreen	[color=darkgreen,
		height=0.51389,
		label="{ Memory allocation darkgreen|@a:  VM (0x0 R/S)}",
		pos="406.5,742",
		rects="345,742,468,760 345,724,468,742",
		type=record,
		width=1.7083];
}
