strict digraph "@main" {
	graph [bb="0,0,749.5,2227",
		label="CFG @main",
		lheight=0.21,
		lp="374.75,11.5",
		lwidth=1.14,
		name="@main"
	];
	node [fontsize="7pt",
		label="\N",
		shape=record
	];
	edge [arrowhead=none];
	0	[color=blue,
		height=2.8056,
		label=<{ <FONT POINT-SIZE="15.0"><B>%0(%0)</B></FONT>| { Cost all NVM | 3}| { Final cost | 3}| { Energy left | 35}| { Energy to leave | 9}| { Variables and nb_access }| {main.first_alloca|1 (NVM)}|<B> Instructions </B>|[%0]  %1 = alloca int 16bit x 1|call @restore([]) ($NVM)|store Value: (int 16bit) 0 in Value: (int 16bit*) %1 ($NVM)|branch None %281 None [Useless]}>,
		pos="258,1969",
		rects="146.5,2044.5,369.5,2069.5 146.5,2028.5,278.5,2044.5 278.5,2028.5,369.5,2044.5 146.5,2012.5,272.5,2028.5 272.5,2012.5,369.5,2028.5 \
146.5,1996.5,272.5,2012.5 272.5,1996.5,369.5,2012.5 146.5,1980.5,284.5,1996.5 284.5,1980.5,369.5,1996.5 146.5,1964.5,369.5,1980.5 \
146.5,1948.5,273.5,1964.5 273.5,1948.5,369.5,1964.5 146.5,1932.5,369.5,1948.5 146.5,1916.5,369.5,1932.5 146.5,1900.5,369.5,1916.5 \
146.5,1884.5,369.5,1900.5 146.5,1868.5,369.5,1884.5",
		width=3.0972];
	281	[color=blue,
		height=1.9167,
		label=<{ <FONT POINT-SIZE="15.0"><B>%281(%@f_entry)</B></FONT>| { Cost all NVM | 6}| { Final cost | 6}| { Energy left | 29}| { Energy to leave | 6}|<B> Instructions </B>|[%281]  %2 = call @f([]) ($NVM)|branch None %301 None [Useless]}>,
		pos="258,1748",
		rects="174.5,1791.5,341.5,1816.5 174.5,1775.5,278.5,1791.5 278.5,1775.5,341.5,1791.5 174.5,1759.5,272.5,1775.5 272.5,1759.5,341.5,1775.5 \
174.5,1743.5,272.5,1759.5 272.5,1743.5,341.5,1759.5 174.5,1727.5,284.5,1743.5 284.5,1727.5,341.5,1743.5 174.5,1711.5,341.5,1727.5 \
174.5,1695.5,341.5,1711.5 174.5,1679.5,341.5,1695.5",
		width=2.3194];
	0 -> 281	[arrowhead=normal,
		checkpoint="C18<DISABLED>",
		label=C18,
		lp="272,1842.5",
		pos="e,258,1816.7 258,1868.4 258,1854.5 258,1840.3 258,1826.8"];
	301	[color=darkgreen,
		height=2.3611,
		label=<{ <FONT POINT-SIZE="15.0"><B>%301(%@f_exit)</B></FONT>| { Cost all NVM | 29}| { Final cost | 29}| { Energy left | 11}| { Energy to leave | 5}|<B> Instructions </B>|[%301]  Value: (int 16bit) %tmp2 = load  Value: (int 16bit*) SGST-0x0 ($VM)|store Value: (int 16bit) %tmp2 in Value: (int 16bit*) @a ($NVM)|call @checkpoint([]) ($NVM)|branch None %261 None [Useless]}>,
		pos="258,1543",
		rects="113,1602.5,403,1627.5 113,1586.5,276,1602.5 276,1586.5,403,1602.5 113,1570.5,270,1586.5 270,1570.5,403,1586.5 113,1554.5,273,1570.5 \
273,1554.5,403,1570.5 113,1538.5,284,1554.5 284,1538.5,403,1554.5 113,1522.5,403,1538.5 113,1506.5,403,1522.5 113,1490.5,403,1506.5 \
113,1474.5,403,1490.5 113,1458.5,403,1474.5",
		width=4.0278];
	281 -> 301	[arrowhead=dot,
		checkpoint="C17<VIRTUAL>",
		label=C17,
		lp="272,1653.5",
		pos="e,258,1627.6 258,1679.4 258,1665.4 258,1650.4 258,1635.7"];
	261	[color=crimson,
		height=2.8056,
		label=<{ <FONT POINT-SIZE="15.0"><B>%261(%0_2)</B></FONT>| { Cost all NVM | 6}| { Final cost | 6}| { Energy left | 32}| { Energy to leave | 21}| { Variables and nb_access }| {@a|2 (NVM)}|<B> Instructions </B>|[%261]  store Value: (int 16bit) %2 in Value: (int 16bit*) @a ($NVM)|%3 = load  Value: (int 16bit*) @a ($NVM)|%4 = cmp sgt: Value: (int 16bit) %3 vs Value: (int 16bit) 2|branch %4 %20 %40}>,
		pos="258,1306",
		rects="128,1381.5,388,1406.5 128,1365.5,278,1381.5 278,1365.5,388,1381.5 128,1349.5,272,1365.5 272,1349.5,388,1365.5 128,1333.5,273,1349.5 \
273,1333.5,388,1349.5 128,1317.5,282,1333.5 282,1317.5,388,1333.5 128,1301.5,388,1317.5 128,1285.5,249,1301.5 249,1285.5,388,1301.5 \
128,1269.5,388,1285.5 128,1253.5,388,1269.5 128,1237.5,388,1253.5 128,1221.5,388,1237.5 128,1205.5,388,1221.5",
		width=3.6111];
	301 -> 261	[arrowhead=diamond,
		checkpoint="C16<ACTIVE>",
		label=C16,
		lp="272,1432.5",
		pos="e,258,1406.7 258,1458.5 258,1445.7 258,1432.2 258,1418.9"];
	20	[color=crimson,
		height=1.6944,
		label=<{ <FONT POINT-SIZE="15.0"><B>%20(%5)</B></FONT>| { Cost all NVM | 0}| { Final cost | 0}| { Energy left | 32}| { Energy to leave | 15}|<B> Instructions </B>|[%20]  branch None %221 None [Useless]}>,
		pos="198,1093",
		rects="114,1128.5,282,1153.5 114,1112.5,218,1128.5 218,1112.5,282,1128.5 114,1096.5,212,1112.5 212,1096.5,282,1112.5 114,1080.5,213,1096.5 \
213,1080.5,282,1096.5 114,1064.5,222,1080.5 222,1064.5,282,1080.5 114,1048.5,282,1064.5 114,1032.5,282,1048.5",
		width=2.3333];
	221	[color=crimson,
		height=1.9167,
		label=<{ <FONT POINT-SIZE="15.0"><B>%221(%@g_entry)</B></FONT>| { Cost all NVM | 15}| { Final cost | 15}| { Energy left | 17}| { Energy to leave | 15}|<B> Instructions </B>|[%221]  %6 = call @g([]) ($NVM)|branch None %241 None [Useless]}>,
		pos="190,912",
		rects="105,955.5,275,980.5 105,939.5,208,955.5 208,939.5,275,955.5 105,923.5,202,939.5 202,923.5,275,939.5 105,907.5,205,923.5 205,907.5,\
275,923.5 105,891.5,214,907.5 214,891.5,275,907.5 105,875.5,275,891.5 105,859.5,275,875.5 105,843.5,275,859.5",
		width=2.3611];
	20 -> 221	[arrowhead=normal,
		checkpoint="C15<DISABLED>",
		label=C15,
		lp="209,1006.5",
		pos="e,193.03,980.69 195.34,1032.4 194.74,1019.1 194.1,1004.7 193.48,990.76"];
	241	[color=darkgreen,
		height=2.3611,
		label=<{ <FONT POINT-SIZE="15.0"><B>%241(%@g_exit)</B></FONT>| { Cost all NVM | 37}| { Final cost | 37}| { Energy left | 3}| { Energy to leave | 5}|<B> Instructions </B>|[%241]  Value: (int 16bit) %tmp1 = load  Value: (int 16bit*) SGST-0x0 ($VM)|store Value: (int 16bit) %tmp1 in Value: (int 16bit*) @a ($NVM)|call @checkpoint([]) ($NVM)|branch None %201 None [Useless]}>,
		pos="145,707",
		rects="0,766.5,290,791.5 0,750.5,163,766.5 163,750.5,290,766.5 0,734.5,157,750.5 157,734.5,290,750.5 0,718.5,162,734.5 162,718.5,290,734.5 \
0,702.5,171,718.5 171,702.5,290,718.5 0,686.5,290,702.5 0,670.5,290,686.5 0,654.5,290,670.5 0,638.5,290,654.5 0,622.5,290,638.5",
		width=4.0278];
	221 -> 241	[arrowhead=dot,
		checkpoint="C14<VIRTUAL>",
		label=C14,
		lp="185,817.5",
		pos="e,163.52,791.56 175.02,843.4 171.91,829.39 168.59,814.4 165.33,799.69"];
	201	[color=crimson,
		height=2.3611,
		label=<{ <FONT POINT-SIZE="15.0"><B>%201(%5_0)</B></FONT>| { Cost all NVM | 2}| { Final cost | 2}| { Energy left | 36}| { Energy to leave | 14}| { Variables and nb_access }| {@a|1 (NVM)}|<B> Instructions </B>|[%201]  store Value: (int 16bit) %6 in Value: (int 16bit*) @a ($NVM)|branch None %40 None [Useless]}>,
		pos="156,486",
		rects="26,545.5,286,570.5 26,529.5,176,545.5 176,529.5,286,545.5 26,513.5,170,529.5 170,513.5,286,529.5 26,497.5,171,513.5 171,497.5,286,\
513.5 26,481.5,180,497.5 180,481.5,286,497.5 26,465.5,286,481.5 26,449.5,147,465.5 147,449.5,286,465.5 26,433.5,286,449.5 26,417.5,\
286,433.5 26,401.5,286,417.5",
		width=3.6111];
	241 -> 201	[arrowhead=diamond,
		checkpoint="C13<ACTIVE>",
		label=C13,
		lp="165,596.5",
		pos="e,151.8,570.69 149.21,622.27 149.86,609.33 150.53,595.87 151.19,582.69"];
	40	[color=crimson,
		height=2.3611,
		label=<{ <FONT POINT-SIZE="15.0"><B>%40(%7)</B></FONT>| { Cost all NVM | 10}| { Final cost | 10}| { Energy left | 22}| { Energy to leave | 12}| { Variables and nb_access }| {@a|1 (NVM)}|<B> Instructions </B>|[%40]  %8 = load  Value: (int 16bit*) @a ($NVM)|return Value: (int 16bit) %8 ($NVM)}>,
		pos="239,265",
		rects="143.5,324.5,334.5,349.5 143.5,308.5,256.5,324.5 256.5,308.5,334.5,324.5 143.5,292.5,250.5,308.5 250.5,292.5,334.5,308.5 143.5,276.5,\
253.5,292.5 253.5,276.5,334.5,292.5 143.5,260.5,262.5,276.5 262.5,260.5,334.5,276.5 143.5,244.5,334.5,260.5 143.5,228.5,230.5,244.5 \
230.5,228.5,334.5,244.5 143.5,212.5,334.5,228.5 143.5,196.5,334.5,212.5 143.5,180.5,334.5,196.5",
		width=2.6528];
	121	[color=crimson,
		height=1.4722,
		label=<{ <FONT POINT-SIZE="15.0"><B>%121(%END_main)</B></FONT>| { Cost all NVM | 0}| { Final cost | 0}| { Energy left | 22}| { Energy to leave | 2}|<B> Instructions </B>}>,
		pos="239,76",
		rects="151,103.5,327,128.5 151,87.5,259,103.5 259,87.5,327,103.5 151,71.5,253,87.5 253,71.5,327,87.5 151,55.5,254,71.5 254,55.5,327,71.5 \
151,39.5,265,55.5 265,39.5,327,55.5 151,23.5,327,39.5",
		width=2.4444];
	40 -> 121	[arrowhead=normal,
		checkpoint="C9<DISABLED>",
		label=C9,
		lp="248.5,154.5",
		pos="e,239,128.66 239,180.35 239,166.46 239,152.27 239,139.04"];
	101	[color=blue,
		height=1.4722,
		label=<{ <FONT POINT-SIZE="15.0"><B>%101(%START_main)</B></FONT>| { Cost all NVM | 0}| { Final cost | 0}| { Energy left | 38}| { Energy to leave | 9}|<B> Instructions </B>}>,
		pos="258,2174",
		rects="161.5,2201.5,354.5,2226.5 161.5,2185.5,278.5,2201.5 278.5,2185.5,354.5,2201.5 161.5,2169.5,272.5,2185.5 272.5,2169.5,354.5,2185.5 \
161.5,2153.5,272.5,2169.5 272.5,2153.5,354.5,2169.5 161.5,2137.5,284.5,2153.5 284.5,2137.5,354.5,2153.5 161.5,2121.5,354.5,2137.5",
		width=2.6806];
	101 -> 0	[arrowhead=normal,
		checkpoint="C7<DISABLED>",
		label=C7,
		lp="267.5,2095.5",
		pos="e,258,2069.9 258,2121.2 258,2108.5 258,2094.3 258,2079.9"];
	201 -> 40	[arrowhead=normal,
		checkpoint="C8<DISABLED>",
		label=C8,
		lp="209.5,375.5",
		pos="e,207.28,349.69 187.73,401.27 192.94,387.53 198.36,373.22 203.65,359.27"];
	261 -> 20	[arrowhead=normal,
		checkpoint="C5<DISABLED>",
		label=C5,
		lp="234.5,1179.5",
		pos="e,214.94,1153.6 229.67,1205.4 225.62,1191.1 221.52,1176.7 217.68,1163.2"];
	261 -> 40	[arrowhead=normal,
		checkpoint="C6<DISABLED>",
		label=C6,
		lp="327.5,817.5",
		pos="e,284.38,349.56 298.44,1205.5 309.25,1170.8 318,1131.2 318,1094 318,1094 318,1094 318,485 318,442.06 304.39,397.04 288.47,359.06"];
	crimson	[color=crimson,
		height=0.51389,
		label="{ Memory allocation crimson|@a:  NVM}",
		pos="430,2174",
		rects="372.5,2174,487.5,2192 372.5,2156,487.5,2174",
		type=record,
		width=1.5972];
	blue	[color=blue,
		height=0.51389,
		label="{ Memory allocation blue|main.first_alloca:  NVM}",
		pos="557,2174",
		rects="506,2174,608,2192 506,2156,608,2174",
		type=record,
		width=1.4167];
	darkgreen	[color=darkgreen,
		height=0.51389,
		label="{ Memory allocation darkgreen|@a:  VM (0x0 R/S)}",
		pos="688,2174",
		rects="626.5,2174,749.5,2192 626.5,2156,749.5,2174",
		type=record,
		width=1.7083];
}
