{
  "@f": {
    "traces": [
      {
        "trace": [
          "%0"
        ],
        "nb_execution": 22
      }
    ]
  },
  "@main": {
    "traces": [
      {
        "trace": [
          "%0",
          "%5",
          "%7"
        ],
        "nb_execution": 10
      },
      {
        "trace": [
          "%0",
          "%7"
        ],
        "nb_execution": 2
      }
    ]
  },
  "@g": {
    "traces": [
      {
        "trace": [
          "%0"
        ],
        "nb_execution": 10
      }
    ]
  }
}