%!PS-Adobe-3.0 EPSF-3.0
%%Creator: graphviz version 2.43.0 (0)
%%Title: 
%%Pages: 1
%%BoundingBox: 36 36 625 1798
%%EndComments
save
%%BeginProlog
/DotDict 200 dict def
DotDict begin

/setupLatin1 {
mark
/EncodingVector 256 array def
 EncodingVector 0

ISOLatin1Encoding 0 255 getinterval putinterval
EncodingVector 45 /hyphen put

% Set up ISO Latin 1 character encoding
/starnetISO {
        dup dup findfont dup length dict begin
        { 1 index /FID ne { def }{ pop pop } ifelse
        } forall
        /Encoding EncodingVector def
        currentdict end definefont
} def
/Times-Roman starnetISO def
/Times-Italic starnetISO def
/Times-Bold starnetISO def
/Times-BoldItalic starnetISO def
/Helvetica starnetISO def
/Helvetica-Oblique starnetISO def
/Helvetica-Bold starnetISO def
/Helvetica-BoldOblique starnetISO def
/Courier starnetISO def
/Courier-Oblique starnetISO def
/Courier-Bold starnetISO def
/Courier-BoldOblique starnetISO def
cleartomark
} bind def

%%BeginResource: procset graphviz 0 0
/coord-font-family /Times-Roman def
/default-font-family /Times-Roman def
/coordfont coord-font-family findfont 8 scalefont def

/InvScaleFactor 1.0 def
/set_scale {
       dup 1 exch div /InvScaleFactor exch def
       scale
} bind def

% styles
/solid { [] 0 setdash } bind def
/dashed { [9 InvScaleFactor mul dup ] 0 setdash } bind def
/dotted { [1 InvScaleFactor mul 6 InvScaleFactor mul] 0 setdash } bind def
/invis {/fill {newpath} def /stroke {newpath} def /show {pop newpath} def} bind def
/bold { 2 setlinewidth } bind def
/filled { } bind def
/unfilled { } bind def
/rounded { } bind def
/diagonals { } bind def
/tapered { } bind def

% hooks for setting color 
/nodecolor { sethsbcolor } bind def
/edgecolor { sethsbcolor } bind def
/graphcolor { sethsbcolor } bind def
/nopcolor {pop pop pop} bind def

/beginpage {	% i j npages
	/npages exch def
	/j exch def
	/i exch def
	/str 10 string def
	npages 1 gt {
		gsave
			coordfont setfont
			0 0 moveto
			(\() show i str cvs show (,) show j str cvs show (\)) show
		grestore
	} if
} bind def

/set_font {
	findfont exch
	scalefont setfont
} def

% draw text fitted to its expected width
/alignedtext {			% width text
	/text exch def
	/width exch def
	gsave
		width 0 gt {
			[] 0 setdash
			text stringwidth pop width exch sub text length div 0 text ashow
		} if
	grestore
} def

/boxprim {				% xcorner ycorner xsize ysize
		4 2 roll
		moveto
		2 copy
		exch 0 rlineto
		0 exch rlineto
		pop neg 0 rlineto
		closepath
} bind def

/ellipse_path {
	/ry exch def
	/rx exch def
	/y exch def
	/x exch def
	matrix currentmatrix
	newpath
	x y translate
	rx ry scale
	0 0 1 0 360 arc
	setmatrix
} bind def

/endpage { showpage } bind def
/showpage { } def

/layercolorseq
	[	% layer color sequence - darkest to lightest
		[0 0 0]
		[.2 .8 .8]
		[.4 .8 .8]
		[.6 .8 .8]
		[.8 .8 .8]
	]
def

/layerlen layercolorseq length def

/setlayer {/maxlayer exch def /curlayer exch def
	layercolorseq curlayer 1 sub layerlen mod get
	aload pop sethsbcolor
	/nodecolor {nopcolor} def
	/edgecolor {nopcolor} def
	/graphcolor {nopcolor} def
} bind def

/onlayer { curlayer ne {invis} if } def

/onlayers {
	/myupper exch def
	/mylower exch def
	curlayer mylower lt
	curlayer myupper gt
	or
	{invis} if
} def

/curlayer 0 def

%%EndResource
%%EndProlog
%%BeginSetup
14 default-font-family set_font
% /arrowlength 10 def
% /arrowwidth 5 def

% make sure pdfmark is harmless for PS-interpreters other than Distiller
/pdfmark where {pop} {userdict /pdfmark /cleartomark load put} ifelse
% make '<<' and '>>' safe on PS Level 1 devices
/languagelevel where {pop languagelevel}{1} ifelse
2 lt {
    userdict (<<) cvn ([) cvn load put
    userdict (>>) cvn ([) cvn load put
} if

%%EndSetup
setupLatin1
%%Page: 1 1
%%PageBoundingBox: 36 36 625 1798
%%PageOrientation: Portrait
0 0 1 beginpage
gsave
36 36 589 1762 boxprim clip newpath
1 1 set_scale 0 rotate 40 40 translate
0 0 0 graphcolor
14 /Times-Roman set_font
247.25 7.8 moveto 86 (CFG @main) alignedtext
% 0
gsave
1 setlinewidth
0.33333 1 0.39216 nodecolor
newpath 0 1025.5 moveto
0 1595.5 lineto
478 1595.5 lineto
478 1025.5 lineto
closepath stroke
0 0 0 nodecolor
15 /Times-Roman set_font
226.5 1580.5 moveto 25 (%0) alignedtext
1 setlinewidth
0.33333 1 0.39216 nodecolor
newpath 0 1570.5 moveto
478 1570.5 lineto
stroke
0 0 0 nodecolor
7 /Times-Roman set_font
104.5 1560.9 moveto 49 (Cost all NVM) alignedtext
1 setlinewidth
0.33333 1 0.39216 nodecolor
newpath 258 1554.5 moveto
258 1570.5 lineto
stroke
0 0 0 nodecolor
7 /Times-Roman set_font
363 1560.9 moveto 10 (29) alignedtext
1 setlinewidth
0.33333 1 0.39216 nodecolor
newpath 0 1554.5 moveto
478 1554.5 lineto
stroke
0 0 0 nodecolor
7 /Times-Roman set_font
108 1544.9 moveto 36 (Final cost) alignedtext
1 setlinewidth
0.33333 1 0.39216 nodecolor
newpath 252 1538.5 moveto
252 1554.5 lineto
stroke
0 0 0 nodecolor
7 /Times-Roman set_font
360 1544.9 moveto 10 (18) alignedtext
1 setlinewidth
0.33333 1 0.39216 nodecolor
newpath 0 1538.5 moveto
478 1538.5 lineto
stroke
0 0 0 nodecolor
7 /Times-Roman set_font
107 1528.9 moveto 40 (Energy left) alignedtext
1 setlinewidth
0.33333 1 0.39216 nodecolor
newpath 254 1522.5 moveto
254 1538.5 lineto
stroke
0 0 0 nodecolor
7 /Times-Roman set_font
361 1528.9 moveto 10 (27) alignedtext
1 setlinewidth
0.33333 1 0.39216 nodecolor
newpath 0 1522.5 moveto
478 1522.5 lineto
stroke
0 0 0 nodecolor
7 /Times-Roman set_font
102.5 1512.9 moveto 58 (Energy to leave) alignedtext
1 setlinewidth
0.33333 1 0.39216 nodecolor
newpath 263 1506.5 moveto
263 1522.5 lineto
stroke
0 0 0 nodecolor
7 /Times-Roman set_font
365.5 1512.9 moveto 10 (23) alignedtext
1 setlinewidth
0.33333 1 0.39216 nodecolor
newpath 0 1506.5 moveto
478 1506.5 lineto
stroke
0 0 0 nodecolor
7 /Times-Roman set_font
194.5 1496.9 moveto 89 (Variables and nb_access) alignedtext
1 setlinewidth
0.33333 1 0.39216 nodecolor
newpath 0 1490.5 moveto
478 1490.5 lineto
stroke
0 0 0 nodecolor
7 /Times-Roman set_font
107.5 1480.9 moveto 16 (sum) alignedtext
1 setlinewidth
0.33333 1 0.39216 nodecolor
newpath 231 1474.5 moveto
231 1490.5 lineto
stroke
0 0 0 nodecolor
7 /Times-Roman set_font
339 1480.9 moveto 31 (11 \(VM\)) alignedtext
1 setlinewidth
0.33333 1 0.39216 nodecolor
newpath 0 1474.5 moveto
478 1474.5 lineto
stroke
0 0 0 nodecolor
7 /Times-Roman set_font
212.5 1465.9 moveto 53 ( Instructions ) alignedtext
1 setlinewidth
0.33333 1 0.39216 nodecolor
newpath 0 1458.5 moveto
478 1458.5 lineto
stroke
0 0 0 nodecolor
7 /Times-Roman set_font
183 1448.9 moveto 112 ([%0]  %1 = alloca int 16bit x 1) alignedtext
1 setlinewidth
0.33333 1 0.39216 nodecolor
newpath 0 1442.5 moveto
478 1442.5 lineto
stroke
0 0 0 nodecolor
7 /Times-Roman set_font
194 1432.9 moveto 90 (%2 = alloca int 16bit x 1) alignedtext
1 setlinewidth
0.33333 1 0.39216 nodecolor
newpath 0 1426.5 moveto
478 1426.5 lineto
stroke
0 0 0 nodecolor
7 /Times-Roman set_font
196 1416.9 moveto 86 (call @restore\([]\) \($VM\)) alignedtext
1 setlinewidth
0.33333 1 0.39216 nodecolor
newpath 0 1410.5 moveto
478 1410.5 lineto
stroke
0 0 0 nodecolor
7 /Times-Roman set_font
18.5 1400.9 moveto 441 (store Value: \(int 16bit\) 0 in getelementpointer Value: \(int 16bit\) @SRAM [Value: \(int 16bit\) 0][Value: \(int 16bit\) 0] \($VM\)) alignedtext
1 setlinewidth
0.33333 1 0.39216 nodecolor
newpath 0 1394.5 moveto
478 1394.5 lineto
stroke
0 0 0 nodecolor
7 /Times-Roman set_font
48 1384.9 moveto 382 (%3 = load  getelementpointer Value: \(int 16bit\) @SRAM [Value: \(int 16bit\) 0][Value: \(int 16bit\) 0] \($VM\)) alignedtext
1 setlinewidth
0.33333 1 0.39216 nodecolor
newpath 0 1378.5 moveto
478 1378.5 lineto
stroke
0 0 0 nodecolor
7 /Times-Roman set_font
146 1368.9 moveto 186 (%4 = add Value: \(int 16bit\) %3, Value: \(int 16bit\) 1) alignedtext
1 setlinewidth
0.33333 1 0.39216 nodecolor
newpath 0 1362.5 moveto
478 1362.5 lineto
stroke
0 0 0 nodecolor
7 /Times-Roman set_font
15 1352.9 moveto 448 (store Value: \(int 16bit\) %4 in getelementpointer Value: \(int 16bit\) @SRAM [Value: \(int 16bit\) 0][Value: \(int 16bit\) 0] \($VM\)) alignedtext
1 setlinewidth
0.33333 1 0.39216 nodecolor
newpath 0 1346.5 moveto
478 1346.5 lineto
stroke
0 0 0 nodecolor
7 /Times-Roman set_font
48 1336.9 moveto 382 (%5 = load  getelementpointer Value: \(int 16bit\) @SRAM [Value: \(int 16bit\) 0][Value: \(int 16bit\) 0] \($VM\)) alignedtext
1 setlinewidth
0.33333 1 0.39216 nodecolor
newpath 0 1330.5 moveto
478 1330.5 lineto
stroke
0 0 0 nodecolor
7 /Times-Roman set_font
146 1320.9 moveto 186 (%6 = add Value: \(int 16bit\) %5, Value: \(int 16bit\) 1) alignedtext
1 setlinewidth
0.33333 1 0.39216 nodecolor
newpath 0 1314.5 moveto
478 1314.5 lineto
stroke
0 0 0 nodecolor
7 /Times-Roman set_font
15 1304.9 moveto 448 (store Value: \(int 16bit\) %6 in getelementpointer Value: \(int 16bit\) @SRAM [Value: \(int 16bit\) 0][Value: \(int 16bit\) 0] \($VM\)) alignedtext
1 setlinewidth
0.33333 1 0.39216 nodecolor
newpath 0 1298.5 moveto
478 1298.5 lineto
stroke
0 0 0 nodecolor
7 /Times-Roman set_font
48 1288.9 moveto 382 (%7 = load  getelementpointer Value: \(int 16bit\) @SRAM [Value: \(int 16bit\) 0][Value: \(int 16bit\) 0] \($VM\)) alignedtext
1 setlinewidth
0.33333 1 0.39216 nodecolor
newpath 0 1282.5 moveto
478 1282.5 lineto
stroke
0 0 0 nodecolor
7 /Times-Roman set_font
146 1272.9 moveto 186 (%8 = add Value: \(int 16bit\) %7, Value: \(int 16bit\) 1) alignedtext
1 setlinewidth
0.33333 1 0.39216 nodecolor
newpath 0 1266.5 moveto
478 1266.5 lineto
stroke
0 0 0 nodecolor
7 /Times-Roman set_font
15 1256.9 moveto 448 (store Value: \(int 16bit\) %8 in getelementpointer Value: \(int 16bit\) @SRAM [Value: \(int 16bit\) 0][Value: \(int 16bit\) 0] \($VM\)) alignedtext
1 setlinewidth
0.33333 1 0.39216 nodecolor
newpath 0 1250.5 moveto
478 1250.5 lineto
stroke
0 0 0 nodecolor
7 /Times-Roman set_font
48 1240.9 moveto 382 (%9 = load  getelementpointer Value: \(int 16bit\) @SRAM [Value: \(int 16bit\) 0][Value: \(int 16bit\) 0] \($VM\)) alignedtext
1 setlinewidth
0.33333 1 0.39216 nodecolor
newpath 0 1234.5 moveto
478 1234.5 lineto
stroke
0 0 0 nodecolor
7 /Times-Roman set_font
144 1224.9 moveto 190 (%10 = add Value: \(int 16bit\) %9, Value: \(int 16bit\) 1) alignedtext
1 setlinewidth
0.33333 1 0.39216 nodecolor
newpath 0 1218.5 moveto
478 1218.5 lineto
stroke
0 0 0 nodecolor
7 /Times-Roman set_font
13 1208.9 moveto 452 (store Value: \(int 16bit\) %10 in getelementpointer Value: \(int 16bit\) @SRAM [Value: \(int 16bit\) 0][Value: \(int 16bit\) 0] \($VM\)) alignedtext
1 setlinewidth
0.33333 1 0.39216 nodecolor
newpath 0 1202.5 moveto
478 1202.5 lineto
stroke
0 0 0 nodecolor
7 /Times-Roman set_font
45.5 1192.9 moveto 387 (%11 = load  getelementpointer Value: \(int 16bit\) @SRAM [Value: \(int 16bit\) 0][Value: \(int 16bit\) 0] \($VM\)) alignedtext
1 setlinewidth
0.33333 1 0.39216 nodecolor
newpath 0 1186.5 moveto
478 1186.5 lineto
stroke
0 0 0 nodecolor
7 /Times-Roman set_font
141.5 1176.9 moveto 195 (%12 = add Value: \(int 16bit\) %11, Value: \(int 16bit\) 1) alignedtext
1 setlinewidth
0.33333 1 0.39216 nodecolor
newpath 0 1170.5 moveto
478 1170.5 lineto
stroke
0 0 0 nodecolor
7 /Times-Roman set_font
13 1160.9 moveto 452 (store Value: \(int 16bit\) %12 in getelementpointer Value: \(int 16bit\) @SRAM [Value: \(int 16bit\) 0][Value: \(int 16bit\) 0] \($VM\)) alignedtext
1 setlinewidth
0.33333 1 0.39216 nodecolor
newpath 0 1154.5 moveto
478 1154.5 lineto
stroke
0 0 0 nodecolor
7 /Times-Roman set_font
9 1144.9 moveto 460 (Value: \(int 16bit\) %tmp0 = load  getelementpointer Value: \(int 16bit\) @SRAM [Value: \(int 16bit\) 0][Value: \(int 16bit\) 0] \($VM\)) alignedtext
1 setlinewidth
0.33333 1 0.39216 nodecolor
newpath 0 1138.5 moveto
478 1138.5 lineto
stroke
0 0 0 nodecolor
7 /Times-Roman set_font
123 1128.9 moveto 232 (store Value: \(int 16bit\) %tmp0 in Value: \(int 16bit*\) %1 \($NVM\)) alignedtext
1 setlinewidth
0.33333 1 0.39216 nodecolor
newpath 0 1122.5 moveto
478 1122.5 lineto
stroke
0 0 0 nodecolor
7 /Times-Roman set_font
189 1112.9 moveto 100 (call @checkpoint\([]\) \($VM\)) alignedtext
1 setlinewidth
0.33333 1 0.39216 nodecolor
newpath 0 1106.5 moveto
478 1106.5 lineto
stroke
0 0 0 nodecolor
7 /Times-Roman set_font
123.5 1096.9 moveto 231 (Value: \(int 16bit\) %tmp2 = load  Value: \(int 16bit*\) %2 \($NVM\)) alignedtext
1 setlinewidth
0.33333 1 0.39216 nodecolor
newpath 0 1090.5 moveto
478 1090.5 lineto
stroke
0 0 0 nodecolor
7 /Times-Roman set_font
8 1080.9 moveto 462 (store Value: \(int 16bit\) %tmp2 in getelementpointer Value: \(int 16bit\) @SRAM [Value: \(int 16bit\) 0][Value: \(int 16bit\) 2] \($VM\)) alignedtext
1 setlinewidth
0.33333 1 0.39216 nodecolor
newpath 0 1074.5 moveto
478 1074.5 lineto
stroke
0 0 0 nodecolor
7 /Times-Roman set_font
109.5 1064.9 moveto 259 (Value: \(int 16bit\) %tmp1 = load  Value: \(int 16bit*\) @variation \($NVM\)) alignedtext
1 setlinewidth
0.33333 1 0.39216 nodecolor
newpath 0 1058.5 moveto
478 1058.5 lineto
stroke
0 0 0 nodecolor
7 /Times-Roman set_font
8 1048.9 moveto 462 (store Value: \(int 16bit\) %tmp1 in getelementpointer Value: \(int 16bit\) @SRAM [Value: \(int 16bit\) 0][Value: \(int 16bit\) 0] \($VM\)) alignedtext
1 setlinewidth
0.33333 1 0.39216 nodecolor
newpath 0 1042.5 moveto
478 1042.5 lineto
stroke
0 0 0 nodecolor
7 /Times-Roman set_font
177 1032.4 moveto 124 (branch None %20 None [Useless]) alignedtext
grestore
% 13
gsave
1 setlinewidth
0.043137 0.68627 1 nodecolor
newpath 5 691.5 moveto
5 973.5 lineto
473 973.5 lineto
473 691.5 lineto
closepath stroke
0 0 0 nodecolor
15 /Times-Roman set_font
221 958.5 moveto 36 (%13) alignedtext
1 setlinewidth
0.043137 0.68627 1 nodecolor
newpath 5 948.5 moveto
473 948.5 lineto
stroke
0 0 0 nodecolor
7 /Times-Roman set_font
108.5 938.9 moveto 49 (Cost all NVM) alignedtext
1 setlinewidth
0.043137 0.68627 1 nodecolor
newpath 261 932.5 moveto
261 948.5 lineto
stroke
0 0 0 nodecolor
7 /Times-Roman set_font
364.5 938.9 moveto 5 (9) alignedtext
1 setlinewidth
0.043137 0.68627 1 nodecolor
newpath 5 932.5 moveto
473 932.5 lineto
stroke
0 0 0 nodecolor
7 /Times-Roman set_font
111.5 922.9 moveto 36 (Final cost) alignedtext
1 setlinewidth
0.043137 0.68627 1 nodecolor
newpath 254 916.5 moveto
254 932.5 lineto
stroke
0 0 0 nodecolor
7 /Times-Roman set_font
361 922.9 moveto 5 (7) alignedtext
1 setlinewidth
0.043137 0.68627 1 nodecolor
newpath 5 916.5 moveto
473 916.5 lineto
stroke
0 0 0 nodecolor
7 /Times-Roman set_font
109.5 906.9 moveto 40 (Energy left) alignedtext
1 setlinewidth
0.043137 0.68627 1 nodecolor
newpath 254 900.5 moveto
254 916.5 lineto
stroke
0 0 0 nodecolor
7 /Times-Roman set_font
358.5 906.9 moveto 10 (35) alignedtext
1 setlinewidth
0.043137 0.68627 1 nodecolor
newpath 5 900.5 moveto
473 900.5 lineto
stroke
0 0 0 nodecolor
7 /Times-Roman set_font
105 890.9 moveto 58 (Energy to leave) alignedtext
1 setlinewidth
0.043137 0.68627 1 nodecolor
newpath 263 884.5 moveto
263 900.5 lineto
stroke
0 0 0 nodecolor
7 /Times-Roman set_font
363 890.9 moveto 10 (41) alignedtext
1 setlinewidth
0.043137 0.68627 1 nodecolor
newpath 5 884.5 moveto
473 884.5 lineto
stroke
0 0 0 nodecolor
7 /Times-Roman set_font
194.5 874.9 moveto 89 (Variables and nb_access) alignedtext
1 setlinewidth
0.043137 0.68627 1 nodecolor
newpath 5 868.5 moveto
473 868.5 lineto
stroke
0 0 0 nodecolor
7 /Times-Roman set_font
110 858.9 moveto 16 (sum) alignedtext
1 setlinewidth
0.043137 0.68627 1 nodecolor
newpath 231 852.5 moveto
231 868.5 lineto
stroke
0 0 0 nodecolor
7 /Times-Roman set_font
336 858.9 moveto 32 (1 \(NVM\)) alignedtext
1 setlinewidth
0.043137 0.68627 1 nodecolor
newpath 5 852.5 moveto
473 852.5 lineto
stroke
0 0 0 nodecolor
7 /Times-Roman set_font
104.5 842.9 moveto 37 (@old_sum) alignedtext
1 setlinewidth
0.043137 0.68627 1 nodecolor
newpath 241 836.5 moveto
241 852.5 lineto
stroke
0 0 0 nodecolor
7 /Times-Roman set_font
341 842.9 moveto 32 (1 \(NVM\)) alignedtext
1 setlinewidth
0.043137 0.68627 1 nodecolor
newpath 5 836.5 moveto
473 836.5 lineto
stroke
0 0 0 nodecolor
7 /Times-Roman set_font
105.5 826.9 moveto 40 (@variation) alignedtext
1 setlinewidth
0.043137 0.68627 1 nodecolor
newpath 246 820.5 moveto
246 836.5 lineto
stroke
0 0 0 nodecolor
7 /Times-Roman set_font
346.5 826.9 moveto 26 (1 \(VM\)) alignedtext
1 setlinewidth
0.043137 0.68627 1 nodecolor
newpath 5 820.5 moveto
473 820.5 lineto
stroke
0 0 0 nodecolor
7 /Times-Roman set_font
106 810.9 moveto 38 (nb_packet) alignedtext
1 setlinewidth
0.043137 0.68627 1 nodecolor
newpath 245 804.5 moveto
245 820.5 lineto
stroke
0 0 0 nodecolor
7 /Times-Roman set_font
346 810.9 moveto 26 (1 \(VM\)) alignedtext
1 setlinewidth
0.043137 0.68627 1 nodecolor
newpath 5 804.5 moveto
473 804.5 lineto
stroke
0 0 0 nodecolor
7 /Times-Roman set_font
212.5 795.9 moveto 53 ( Instructions ) alignedtext
1 setlinewidth
0.043137 0.68627 1 nodecolor
newpath 5 788.5 moveto
473 788.5 lineto
stroke
0 0 0 nodecolor
7 /Times-Roman set_font
147 778.9 moveto 184 ([%20]  %14 = load  Value: \(int 16bit*\) %1 \($NVM\)) alignedtext
1 setlinewidth
0.043137 0.68627 1 nodecolor
newpath 5 772.5 moveto
473 772.5 lineto
stroke
0 0 0 nodecolor
7 /Times-Roman set_font
147.5 762.9 moveto 183 (%15 = load  Value: \(int 16bit*\) @old_sum \($NVM\)) alignedtext
1 setlinewidth
0.043137 0.68627 1 nodecolor
newpath 5 756.5 moveto
473 756.5 lineto
stroke
0 0 0 nodecolor
7 /Times-Roman set_font
136.5 746.9 moveto 205 (%16 = sub Value: \(int 16bit\) %14, Value: \(int 16bit\) %15) alignedtext
1 setlinewidth
0.043137 0.68627 1 nodecolor
newpath 5 740.5 moveto
473 740.5 lineto
stroke
0 0 0 nodecolor
7 /Times-Roman set_font
13 730.9 moveto 452 (store Value: \(int 16bit\) %16 in getelementpointer Value: \(int 16bit\) @SRAM [Value: \(int 16bit\) 0][Value: \(int 16bit\) 0] \($VM\)) alignedtext
1 setlinewidth
0.043137 0.68627 1 nodecolor
newpath 5 724.5 moveto
473 724.5 lineto
stroke
0 0 0 nodecolor
7 /Times-Roman set_font
18.5 714.9 moveto 441 (store Value: \(int 16bit\) 0 in getelementpointer Value: \(int 16bit\) @SRAM [Value: \(int 16bit\) 0][Value: \(int 16bit\) 2] \($VM\)) alignedtext
1 setlinewidth
0.043137 0.68627 1 nodecolor
newpath 5 708.5 moveto
473 708.5 lineto
stroke
0 0 0 nodecolor
7 /Times-Roman set_font
177 698.4 moveto 124 (branch None %40 None [Useless]) alignedtext
grestore
% 0->13
gsave
1 setlinewidth
0 0 0 edgecolor
newpath 239 1025.3926 moveto
239 1011.9076 239 998.6279 239 985.7359 curveto
stroke
0 0 0 edgecolor
newpath 239.0001 985.5001 moveto
235 979.5002 lineto
239 973.5001 lineto
243 979.5001 lineto
closepath fill
1 setlinewidth
solid
0 0 0 edgecolor
newpath 239.0001 985.5001 moveto
235 979.5002 lineto
239 973.5001 lineto
243 979.5001 lineto
closepath stroke
0 0 0 edgecolor
14 /Times-Roman set_font
239 995.8 moveto 20 (C2) alignedtext
grestore
% 17
gsave
1 setlinewidth
0.043137 0.68627 1 nodecolor
newpath 5 181.5 moveto
5 639.5 lineto
473 639.5 lineto
473 181.5 lineto
closepath stroke
0 0 0 nodecolor
15 /Times-Roman set_font
221 624.5 moveto 36 (%17) alignedtext
1 setlinewidth
0.043137 0.68627 1 nodecolor
newpath 5 614.5 moveto
473 614.5 lineto
stroke
0 0 0 nodecolor
7 /Times-Roman set_font
107 604.9 moveto 49 (Cost all NVM) alignedtext
1 setlinewidth
0.043137 0.68627 1 nodecolor
newpath 258 598.5 moveto
258 614.5 lineto
stroke
0 0 0 nodecolor
7 /Times-Roman set_font
360.5 604.9 moveto 10 (38) alignedtext
1 setlinewidth
0.043137 0.68627 1 nodecolor
newpath 5 598.5 moveto
473 598.5 lineto
stroke
0 0 0 nodecolor
7 /Times-Roman set_font
110.5 588.9 moveto 36 (Final cost) alignedtext
1 setlinewidth
0.043137 0.68627 1 nodecolor
newpath 252 582.5 moveto
252 598.5 lineto
stroke
0 0 0 nodecolor
7 /Times-Roman set_font
357.5 588.9 moveto 10 (26) alignedtext
1 setlinewidth
0.043137 0.68627 1 nodecolor
newpath 5 582.5 moveto
473 582.5 lineto
stroke
0 0 0 nodecolor
7 /Times-Roman set_font
110.5 572.9 moveto 40 (Energy left) alignedtext
1 setlinewidth
0.043137 0.68627 1 nodecolor
newpath 256 566.5 moveto
256 582.5 lineto
stroke
0 0 0 nodecolor
7 /Times-Roman set_font
362 572.9 moveto 5 (9) alignedtext
1 setlinewidth
0.043137 0.68627 1 nodecolor
newpath 5 566.5 moveto
473 566.5 lineto
stroke
0 0 0 nodecolor
7 /Times-Roman set_font
105 556.9 moveto 58 (Energy to leave) alignedtext
1 setlinewidth
0.043137 0.68627 1 nodecolor
newpath 263 550.5 moveto
263 566.5 lineto
stroke
0 0 0 nodecolor
7 /Times-Roman set_font
363 556.9 moveto 10 (34) alignedtext
1 setlinewidth
0.043137 0.68627 1 nodecolor
newpath 5 550.5 moveto
473 550.5 lineto
stroke
0 0 0 nodecolor
7 /Times-Roman set_font
194.5 540.9 moveto 89 (Variables and nb_access) alignedtext
1 setlinewidth
0.043137 0.68627 1 nodecolor
newpath 5 534.5 moveto
473 534.5 lineto
stroke
0 0 0 nodecolor
7 /Times-Roman set_font
105.5 524.9 moveto 40 (@variation) alignedtext
1 setlinewidth
0.043137 0.68627 1 nodecolor
newpath 246 518.5 moveto
246 534.5 lineto
stroke
0 0 0 nodecolor
7 /Times-Roman set_font
346.5 524.9 moveto 26 (6 \(VM\)) alignedtext
1 setlinewidth
0.043137 0.68627 1 nodecolor
newpath 5 518.5 moveto
473 518.5 lineto
stroke
0 0 0 nodecolor
7 /Times-Roman set_font
106 508.9 moveto 38 (nb_packet) alignedtext
1 setlinewidth
0.043137 0.68627 1 nodecolor
newpath 245 502.5 moveto
245 518.5 lineto
stroke
0 0 0 nodecolor
7 /Times-Roman set_font
346 508.9 moveto 26 (6 \(VM\)) alignedtext
1 setlinewidth
0.043137 0.68627 1 nodecolor
newpath 5 502.5 moveto
473 502.5 lineto
stroke
0 0 0 nodecolor
7 /Times-Roman set_font
212.5 493.9 moveto 53 ( Instructions ) alignedtext
1 setlinewidth
0.043137 0.68627 1 nodecolor
newpath 5 486.5 moveto
473 486.5 lineto
stroke
0 0 0 nodecolor
7 /Times-Roman set_font
32.5 476.9 moveto 413 ([%40]  %18 = load  getelementpointer Value: \(int 16bit\) @SRAM [Value: \(int 16bit\) 0][Value: \(int 16bit\) 0] \($VM\)) alignedtext
1 setlinewidth
0.043137 0.68627 1 nodecolor
newpath 5 470.5 moveto
473 470.5 lineto
stroke
0 0 0 nodecolor
7 /Times-Roman set_font
143 460.9 moveto 192 (%19 = shl Value: \(int 16bit\) %18, Value: \(int 16bit\) 2) alignedtext
1 setlinewidth
0.043137 0.68627 1 nodecolor
newpath 5 454.5 moveto
473 454.5 lineto
stroke
0 0 0 nodecolor
7 /Times-Roman set_font
13 444.9 moveto 452 (store Value: \(int 16bit\) %19 in getelementpointer Value: \(int 16bit\) @SRAM [Value: \(int 16bit\) 0][Value: \(int 16bit\) 0] \($VM\)) alignedtext
1 setlinewidth
0.043137 0.68627 1 nodecolor
newpath 5 438.5 moveto
473 438.5 lineto
stroke
0 0 0 nodecolor
7 /Times-Roman set_font
45.5 428.9 moveto 387 (%20 = load  getelementpointer Value: \(int 16bit\) @SRAM [Value: \(int 16bit\) 0][Value: \(int 16bit\) 2] \($VM\)) alignedtext
1 setlinewidth
0.043137 0.68627 1 nodecolor
newpath 5 422.5 moveto
473 422.5 lineto
stroke
0 0 0 nodecolor
7 /Times-Roman set_font
141.5 412.9 moveto 195 (%21 = add Value: \(int 16bit\) %20, Value: \(int 16bit\) 1) alignedtext
1 setlinewidth
0.043137 0.68627 1 nodecolor
newpath 5 406.5 moveto
473 406.5 lineto
stroke
0 0 0 nodecolor
7 /Times-Roman set_font
13 396.9 moveto 452 (store Value: \(int 16bit\) %21 in getelementpointer Value: \(int 16bit\) @SRAM [Value: \(int 16bit\) 0][Value: \(int 16bit\) 2] \($VM\)) alignedtext
1 setlinewidth
0.043137 0.68627 1 nodecolor
newpath 5 390.5 moveto
473 390.5 lineto
stroke
0 0 0 nodecolor
7 /Times-Roman set_font
45.5 380.9 moveto 387 (%22 = load  getelementpointer Value: \(int 16bit\) @SRAM [Value: \(int 16bit\) 0][Value: \(int 16bit\) 0] \($VM\)) alignedtext
1 setlinewidth
0.043137 0.68627 1 nodecolor
newpath 5 374.5 moveto
473 374.5 lineto
stroke
0 0 0 nodecolor
7 /Times-Roman set_font
143 364.9 moveto 192 (%23 = shl Value: \(int 16bit\) %22, Value: \(int 16bit\) 2) alignedtext
1 setlinewidth
0.043137 0.68627 1 nodecolor
newpath 5 358.5 moveto
473 358.5 lineto
stroke
0 0 0 nodecolor
7 /Times-Roman set_font
13 348.9 moveto 452 (store Value: \(int 16bit\) %23 in getelementpointer Value: \(int 16bit\) @SRAM [Value: \(int 16bit\) 0][Value: \(int 16bit\) 0] \($VM\)) alignedtext
1 setlinewidth
0.043137 0.68627 1 nodecolor
newpath 5 342.5 moveto
473 342.5 lineto
stroke
0 0 0 nodecolor
7 /Times-Roman set_font
45.5 332.9 moveto 387 (%24 = load  getelementpointer Value: \(int 16bit\) @SRAM [Value: \(int 16bit\) 0][Value: \(int 16bit\) 2] \($VM\)) alignedtext
1 setlinewidth
0.043137 0.68627 1 nodecolor
newpath 5 326.5 moveto
473 326.5 lineto
stroke
0 0 0 nodecolor
7 /Times-Roman set_font
141.5 316.9 moveto 195 (%25 = add Value: \(int 16bit\) %24, Value: \(int 16bit\) 1) alignedtext
1 setlinewidth
0.043137 0.68627 1 nodecolor
newpath 5 310.5 moveto
473 310.5 lineto
stroke
0 0 0 nodecolor
7 /Times-Roman set_font
13 300.9 moveto 452 (store Value: \(int 16bit\) %25 in getelementpointer Value: \(int 16bit\) @SRAM [Value: \(int 16bit\) 0][Value: \(int 16bit\) 2] \($VM\)) alignedtext
1 setlinewidth
0.043137 0.68627 1 nodecolor
newpath 5 294.5 moveto
473 294.5 lineto
stroke
0 0 0 nodecolor
7 /Times-Roman set_font
45.5 284.9 moveto 387 (%26 = load  getelementpointer Value: \(int 16bit\) @SRAM [Value: \(int 16bit\) 0][Value: \(int 16bit\) 0] \($VM\)) alignedtext
1 setlinewidth
0.043137 0.68627 1 nodecolor
newpath 5 278.5 moveto
473 278.5 lineto
stroke
0 0 0 nodecolor
7 /Times-Roman set_font
143 268.9 moveto 192 (%27 = shl Value: \(int 16bit\) %26, Value: \(int 16bit\) 2) alignedtext
1 setlinewidth
0.043137 0.68627 1 nodecolor
newpath 5 262.5 moveto
473 262.5 lineto
stroke
0 0 0 nodecolor
7 /Times-Roman set_font
13 252.9 moveto 452 (store Value: \(int 16bit\) %27 in getelementpointer Value: \(int 16bit\) @SRAM [Value: \(int 16bit\) 0][Value: \(int 16bit\) 0] \($VM\)) alignedtext
1 setlinewidth
0.043137 0.68627 1 nodecolor
newpath 5 246.5 moveto
473 246.5 lineto
stroke
0 0 0 nodecolor
7 /Times-Roman set_font
45.5 236.9 moveto 387 (%28 = load  getelementpointer Value: \(int 16bit\) @SRAM [Value: \(int 16bit\) 0][Value: \(int 16bit\) 2] \($VM\)) alignedtext
1 setlinewidth
0.043137 0.68627 1 nodecolor
newpath 5 230.5 moveto
473 230.5 lineto
stroke
0 0 0 nodecolor
7 /Times-Roman set_font
141.5 220.9 moveto 195 (%29 = add Value: \(int 16bit\) %28, Value: \(int 16bit\) 1) alignedtext
1 setlinewidth
0.043137 0.68627 1 nodecolor
newpath 5 214.5 moveto
473 214.5 lineto
stroke
0 0 0 nodecolor
7 /Times-Roman set_font
13 204.9 moveto 452 (store Value: \(int 16bit\) %29 in getelementpointer Value: \(int 16bit\) @SRAM [Value: \(int 16bit\) 0][Value: \(int 16bit\) 2] \($VM\)) alignedtext
1 setlinewidth
0.043137 0.68627 1 nodecolor
newpath 5 198.5 moveto
473 198.5 lineto
stroke
0 0 0 nodecolor
7 /Times-Roman set_font
179.5 188.4 moveto 119 (return Value: \(int 16bit\) 0 \($VM\)) alignedtext
grestore
% 13->17
gsave
1 setlinewidth
0 0 0 edgecolor
newpath 239 691.3542 moveto
239 674.6557 239 657.2921 239 639.7575 curveto
stroke
0 0 0 edgecolor
14 /Times-Roman set_font
239 661.8 moveto 20 (C3) alignedtext
grestore
% END @main
gsave
1 setlinewidth
0.043137 0.68627 1 nodecolor
newpath 173.5 23.5 moveto
173.5 129.5 lineto
304.5 129.5 lineto
304.5 23.5 lineto
closepath stroke
0 0 0 nodecolor
15 /Times-Roman set_font
181.5 114.5 moveto 115 (%END @main) alignedtext
1 setlinewidth
0.043137 0.68627 1 nodecolor
newpath 173.5 104.5 moveto
304.5 104.5 lineto
stroke
0 0 0 nodecolor
7 /Times-Roman set_font
192.5 94.9 moveto 49 (Cost all NVM) alignedtext
1 setlinewidth
0.043137 0.68627 1 nodecolor
newpath 260.5 88.5 moveto
260.5 104.5 lineto
stroke
0 0 0 nodecolor
7 /Times-Roman set_font
280 94.9 moveto 5 (0) alignedtext
1 setlinewidth
0.043137 0.68627 1 nodecolor
newpath 173.5 88.5 moveto
304.5 88.5 lineto
stroke
0 0 0 nodecolor
7 /Times-Roman set_font
196 78.9 moveto 36 (Final cost) alignedtext
1 setlinewidth
0.043137 0.68627 1 nodecolor
newpath 254.5 72.5 moveto
254.5 88.5 lineto
stroke
0 0 0 nodecolor
7 /Times-Roman set_font
277 78.9 moveto 5 (0) alignedtext
1 setlinewidth
0.043137 0.68627 1 nodecolor
newpath 173.5 72.5 moveto
304.5 72.5 lineto
stroke
0 0 0 nodecolor
7 /Times-Roman set_font
195 62.9 moveto 40 (Energy left) alignedtext
1 setlinewidth
0.043137 0.68627 1 nodecolor
newpath 256.5 56.5 moveto
256.5 72.5 lineto
stroke
0 0 0 nodecolor
7 /Times-Roman set_font
278 62.9 moveto 5 (9) alignedtext
1 setlinewidth
0.043137 0.68627 1 nodecolor
newpath 173.5 56.5 moveto
304.5 56.5 lineto
stroke
0 0 0 nodecolor
7 /Times-Roman set_font
190.5 46.9 moveto 58 (Energy to leave) alignedtext
1 setlinewidth
0.043137 0.68627 1 nodecolor
newpath 265.5 40.5 moveto
265.5 56.5 lineto
stroke
0 0 0 nodecolor
7 /Times-Roman set_font
282.5 46.9 moveto 5 (8) alignedtext
1 setlinewidth
0.043137 0.68627 1 nodecolor
newpath 173.5 40.5 moveto
304.5 40.5 lineto
stroke
0 0 0 nodecolor
7 /Times-Roman set_font
212.5 31.4 moveto 53 ( Instructions ) alignedtext
grestore
% 17->END @main
gsave
1 setlinewidth
0 0 0 edgecolor
newpath 239 181.1812 moveto
239 162.3545 239 144.7788 239 129.641 curveto
stroke
0 0 0 edgecolor
14 /Times-Roman set_font
239 151.8 moveto 20 (C4) alignedtext
grestore
% START @main
gsave
1 setlinewidth
0.33333 1 0.39216 nodecolor
newpath 164 1647.5 moveto
164 1753.5 lineto
314 1753.5 lineto
314 1647.5 lineto
closepath stroke
0 0 0 nodecolor
15 /Times-Roman set_font
172 1738.5 moveto 134 (%START @main) alignedtext
1 setlinewidth
0.33333 1 0.39216 nodecolor
newpath 164 1728.5 moveto
314 1728.5 lineto
stroke
0 0 0 nodecolor
7 /Times-Roman set_font
188 1718.9 moveto 49 (Cost all NVM) alignedtext
1 setlinewidth
0.33333 1 0.39216 nodecolor
newpath 261 1712.5 moveto
261 1728.5 lineto
stroke
0 0 0 nodecolor
7 /Times-Roman set_font
285 1718.9 moveto 5 (0) alignedtext
1 setlinewidth
0.33333 1 0.39216 nodecolor
newpath 164 1712.5 moveto
314 1712.5 lineto
stroke
0 0 0 nodecolor
7 /Times-Roman set_font
191 1702.9 moveto 36 (Final cost) alignedtext
1 setlinewidth
0.33333 1 0.39216 nodecolor
newpath 254 1696.5 moveto
254 1712.5 lineto
stroke
0 0 0 nodecolor
7 /Times-Roman set_font
281.5 1702.9 moveto 5 (0) alignedtext
1 setlinewidth
0.33333 1 0.39216 nodecolor
newpath 164 1696.5 moveto
314 1696.5 lineto
stroke
0 0 0 nodecolor
7 /Times-Roman set_font
189 1686.9 moveto 40 (Energy left) alignedtext
1 setlinewidth
0.33333 1 0.39216 nodecolor
newpath 254 1680.5 moveto
254 1696.5 lineto
stroke
0 0 0 nodecolor
7 /Times-Roman set_font
279 1686.9 moveto 10 (45) alignedtext
1 setlinewidth
0.33333 1 0.39216 nodecolor
newpath 164 1680.5 moveto
314 1680.5 lineto
stroke
0 0 0 nodecolor
7 /Times-Roman set_font
184.5 1670.9 moveto 58 (Energy to leave) alignedtext
1 setlinewidth
0.33333 1 0.39216 nodecolor
newpath 263 1664.5 moveto
263 1680.5 lineto
stroke
0 0 0 nodecolor
7 /Times-Roman set_font
283.5 1670.9 moveto 10 (23) alignedtext
1 setlinewidth
0.33333 1 0.39216 nodecolor
newpath 164 1664.5 moveto
314 1664.5 lineto
stroke
0 0 0 nodecolor
7 /Times-Roman set_font
212.5 1655.4 moveto 53 ( Instructions ) alignedtext
grestore
% START @main->0
gsave
1 setlinewidth
0 0 0 edgecolor
newpath 239 1647.1726 moveto
239 1632.1759 239 1614.6958 239 1595.7362 curveto
stroke
0 0 0 edgecolor
14 /Times-Roman set_font
239 1617.8 moveto 20 (C1) alignedtext
grestore
% coral
gsave
1 setlinewidth
0.043137 0.68627 1 nodecolor
newpath 332.5 1660 moveto
332.5 1741 lineto
437.5 1741 lineto
437.5 1660 lineto
closepath stroke
0 0 0 nodecolor
7 /Times-Roman set_font
340.5 1731.4 moveto 89 (Memory allocation coral) alignedtext
1 setlinewidth
0.043137 0.68627 1 nodecolor
newpath 332.5 1725 moveto
437.5 1725 lineto
stroke
0 0 0 nodecolor
7 /Times-Roman set_font
356.5 1715.4 moveto 57 (@variation: VM) alignedtext
1 setlinewidth
0.043137 0.68627 1 nodecolor
newpath 332.5 1709 moveto
437.5 1709 lineto
stroke
0 0 0 nodecolor
7 /Times-Roman set_font
357.5 1699.4 moveto 55 (nb_packet: VM) alignedtext
1 setlinewidth
0.043137 0.68627 1 nodecolor
newpath 332.5 1693 moveto
437.5 1693 lineto
stroke
0 0 0 nodecolor
7 /Times-Roman set_font
365.5 1683.4 moveto 39 (sum: NVM) alignedtext
1 setlinewidth
0.043137 0.68627 1 nodecolor
newpath 332.5 1677 moveto
437.5 1677 lineto
stroke
0 0 0 nodecolor
7 /Times-Roman set_font
354.5 1666.9 moveto 61 (@old_sum: NVM) alignedtext
grestore
% darkgreen
gsave
1 setlinewidth
0.33333 1 0.39216 nodecolor
newpath 455.5 1682 moveto
455.5 1719 lineto
580.5 1719 lineto
580.5 1682 lineto
closepath stroke
0 0 0 nodecolor
7 /Times-Roman set_font
463.5 1708.4 moveto 109 (Memory allocation darkgreen) alignedtext
1 setlinewidth
0.33333 1 0.39216 nodecolor
newpath 455.5 1701 moveto
580.5 1701 lineto
stroke
0 0 0 nodecolor
7 /Times-Roman set_font
501.5 1689.9 moveto 33 (sum: VM) alignedtext
grestore
endpage
showpage
grestore
%%PageTrailer
%%EndPage: 1
%%Trailer
end
restore
%%EOF
