%!PS-Adobe-3.0 EPSF-3.0
%%Creator: graphviz version 2.43.0 (0)
%%Title: 
%%Pages: 1
%%BoundingBox: 36 36 310 1430
%%EndComments
save
%%BeginProlog
/DotDict 200 dict def
DotDict begin

/setupLatin1 {
mark
/EncodingVector 256 array def
 EncodingVector 0

ISOLatin1Encoding 0 255 getinterval putinterval
EncodingVector 45 /hyphen put

% Set up ISO Latin 1 character encoding
/starnetISO {
        dup dup findfont dup length dict begin
        { 1 index /FID ne { def }{ pop pop } ifelse
        } forall
        /Encoding EncodingVector def
        currentdict end definefont
} def
/Times-Roman starnetISO def
/Times-Italic starnetISO def
/Times-Bold starnetISO def
/Times-BoldItalic starnetISO def
/Helvetica starnetISO def
/Helvetica-Oblique starnetISO def
/Helvetica-Bold starnetISO def
/Helvetica-BoldOblique starnetISO def
/Courier starnetISO def
/Courier-Oblique starnetISO def
/Courier-Bold starnetISO def
/Courier-BoldOblique starnetISO def
cleartomark
} bind def

%%BeginResource: procset graphviz 0 0
/coord-font-family /Times-Roman def
/default-font-family /Times-Roman def
/coordfont coord-font-family findfont 8 scalefont def

/InvScaleFactor 1.0 def
/set_scale {
       dup 1 exch div /InvScaleFactor exch def
       scale
} bind def

% styles
/solid { [] 0 setdash } bind def
/dashed { [9 InvScaleFactor mul dup ] 0 setdash } bind def
/dotted { [1 InvScaleFactor mul 6 InvScaleFactor mul] 0 setdash } bind def
/invis {/fill {newpath} def /stroke {newpath} def /show {pop newpath} def} bind def
/bold { 2 setlinewidth } bind def
/filled { } bind def
/unfilled { } bind def
/rounded { } bind def
/diagonals { } bind def
/tapered { } bind def

% hooks for setting color 
/nodecolor { sethsbcolor } bind def
/edgecolor { sethsbcolor } bind def
/graphcolor { sethsbcolor } bind def
/nopcolor {pop pop pop} bind def

/beginpage {	% i j npages
	/npages exch def
	/j exch def
	/i exch def
	/str 10 string def
	npages 1 gt {
		gsave
			coordfont setfont
			0 0 moveto
			(\() show i str cvs show (,) show j str cvs show (\)) show
		grestore
	} if
} bind def

/set_font {
	findfont exch
	scalefont setfont
} def

% draw text fitted to its expected width
/alignedtext {			% width text
	/text exch def
	/width exch def
	gsave
		width 0 gt {
			[] 0 setdash
			text stringwidth pop width exch sub text length div 0 text ashow
		} if
	grestore
} def

/boxprim {				% xcorner ycorner xsize ysize
		4 2 roll
		moveto
		2 copy
		exch 0 rlineto
		0 exch rlineto
		pop neg 0 rlineto
		closepath
} bind def

/ellipse_path {
	/ry exch def
	/rx exch def
	/y exch def
	/x exch def
	matrix currentmatrix
	newpath
	x y translate
	rx ry scale
	0 0 1 0 360 arc
	setmatrix
} bind def

/endpage { showpage } bind def
/showpage { } def

/layercolorseq
	[	% layer color sequence - darkest to lightest
		[0 0 0]
		[.2 .8 .8]
		[.4 .8 .8]
		[.6 .8 .8]
		[.8 .8 .8]
	]
def

/layerlen layercolorseq length def

/setlayer {/maxlayer exch def /curlayer exch def
	layercolorseq curlayer 1 sub layerlen mod get
	aload pop sethsbcolor
	/nodecolor {nopcolor} def
	/edgecolor {nopcolor} def
	/graphcolor {nopcolor} def
} bind def

/onlayer { curlayer ne {invis} if } def

/onlayers {
	/myupper exch def
	/mylower exch def
	curlayer mylower lt
	curlayer myupper gt
	or
	{invis} if
} def

/curlayer 0 def

%%EndResource
%%EndProlog
%%BeginSetup
14 default-font-family set_font
% /arrowlength 10 def
% /arrowwidth 5 def

% make sure pdfmark is harmless for PS-interpreters other than Distiller
/pdfmark where {pop} {userdict /pdfmark /cleartomark load put} ifelse
% make '<<' and '>>' safe on PS Level 1 devices
/languagelevel where {pop languagelevel}{1} ifelse
2 lt {
    userdict (<<) cvn ([) cvn load put
    userdict (>>) cvn ([) cvn load put
} if

%%EndSetup
setupLatin1
%%Page: 1 1
%%PageBoundingBox: 36 36 310 1430
%%PageOrientation: Portrait
0 0 1 beginpage
gsave
36 36 274 1394 boxprim clip newpath
1 1 set_scale 0 rotate 40 40 translate
0 0 0 graphcolor
14 /Times-Roman set_font
90 7.8 moveto 86 (CFG @main) alignedtext
% 0
gsave
1 setlinewidth
0 0 0 nodecolor
newpath 13.5 881.5 moveto
13.5 1275.5 lineto
252.5 1275.5 lineto
252.5 881.5 lineto
closepath stroke
0 0 0 nodecolor
15 /Times-Roman set_font
120.5 1260.5 moveto 25 (%0) alignedtext
1 setlinewidth
0 0 0 nodecolor
newpath 13.5 1250.5 moveto
252.5 1250.5 lineto
stroke
0 0 0 nodecolor
7 /Times-Roman set_font
58.5 1240.9 moveto 49 (Cost all NVM) alignedtext
1 setlinewidth
0 0 0 nodecolor
newpath 152.5 1234.5 moveto
152.5 1250.5 lineto
stroke
0 0 0 nodecolor
7 /Times-Roman set_font
197.5 1240.9 moveto 10 (29) alignedtext
1 setlinewidth
0 0 0 nodecolor
newpath 13.5 1234.5 moveto
252.5 1234.5 lineto
stroke
0 0 0 nodecolor
7 /Times-Roman set_font
88.5 1224.9 moveto 89 (Variables and nb_access) alignedtext
1 setlinewidth
0 0 0 nodecolor
newpath 13.5 1218.5 moveto
252.5 1218.5 lineto
stroke
0 0 0 nodecolor
7 /Times-Roman set_font
66.5 1208.9 moveto 16 (sum) alignedtext
1 setlinewidth
0 0 0 nodecolor
newpath 135.5 1202.5 moveto
135.5 1218.5 lineto
stroke
0 0 0 nodecolor
7 /Times-Roman set_font
189 1208.9 moveto 10 (11) alignedtext
1 setlinewidth
0 0 0 nodecolor
newpath 13.5 1202.5 moveto
252.5 1202.5 lineto
stroke
0 0 0 nodecolor
7 /Times-Roman set_font
106.5 1193.9 moveto 53 ( Instructions ) alignedtext
1 setlinewidth
0 0 0 nodecolor
newpath 13.5 1186.5 moveto
252.5 1186.5 lineto
stroke
0 0 0 nodecolor
7 /Times-Roman set_font
77 1176.9 moveto 112 ([%0]  %1 = alloca int 16bit x 1) alignedtext
1 setlinewidth
0 0 0 nodecolor
newpath 13.5 1170.5 moveto
252.5 1170.5 lineto
stroke
0 0 0 nodecolor
7 /Times-Roman set_font
88 1160.9 moveto 90 (%2 = alloca int 16bit x 1) alignedtext
1 setlinewidth
0 0 0 nodecolor
newpath 13.5 1154.5 moveto
252.5 1154.5 lineto
stroke
0 0 0 nodecolor
7 /Times-Roman set_font
27.5 1144.9 moveto 211 (store Value: \(int 16bit\) 0 in Value: \(int 16bit*\) %1 \($NVM\)) alignedtext
1 setlinewidth
0 0 0 nodecolor
newpath 13.5 1138.5 moveto
252.5 1138.5 lineto
stroke
0 0 0 nodecolor
7 /Times-Roman set_font
56.5 1128.9 moveto 153 (%3 = load  Value: \(int 16bit*\) %1 \($NVM\)) alignedtext
1 setlinewidth
0 0 0 nodecolor
newpath 13.5 1122.5 moveto
252.5 1122.5 lineto
stroke
0 0 0 nodecolor
7 /Times-Roman set_font
40 1112.9 moveto 186 (%4 = add Value: \(int 16bit\) %3, Value: \(int 16bit\) 1) alignedtext
1 setlinewidth
0 0 0 nodecolor
newpath 13.5 1106.5 moveto
252.5 1106.5 lineto
stroke
0 0 0 nodecolor
7 /Times-Roman set_font
24 1096.9 moveto 218 (store Value: \(int 16bit\) %4 in Value: \(int 16bit*\) %1 \($NVM\)) alignedtext
1 setlinewidth
0 0 0 nodecolor
newpath 13.5 1090.5 moveto
252.5 1090.5 lineto
stroke
0 0 0 nodecolor
7 /Times-Roman set_font
56.5 1080.9 moveto 153 (%5 = load  Value: \(int 16bit*\) %1 \($NVM\)) alignedtext
1 setlinewidth
0 0 0 nodecolor
newpath 13.5 1074.5 moveto
252.5 1074.5 lineto
stroke
0 0 0 nodecolor
7 /Times-Roman set_font
40 1064.9 moveto 186 (%6 = add Value: \(int 16bit\) %5, Value: \(int 16bit\) 1) alignedtext
1 setlinewidth
0 0 0 nodecolor
newpath 13.5 1058.5 moveto
252.5 1058.5 lineto
stroke
0 0 0 nodecolor
7 /Times-Roman set_font
24 1048.9 moveto 218 (store Value: \(int 16bit\) %6 in Value: \(int 16bit*\) %1 \($NVM\)) alignedtext
1 setlinewidth
0 0 0 nodecolor
newpath 13.5 1042.5 moveto
252.5 1042.5 lineto
stroke
0 0 0 nodecolor
7 /Times-Roman set_font
56.5 1032.9 moveto 153 (%7 = load  Value: \(int 16bit*\) %1 \($NVM\)) alignedtext
1 setlinewidth
0 0 0 nodecolor
newpath 13.5 1026.5 moveto
252.5 1026.5 lineto
stroke
0 0 0 nodecolor
7 /Times-Roman set_font
40 1016.9 moveto 186 (%8 = add Value: \(int 16bit\) %7, Value: \(int 16bit\) 1) alignedtext
1 setlinewidth
0 0 0 nodecolor
newpath 13.5 1010.5 moveto
252.5 1010.5 lineto
stroke
0 0 0 nodecolor
7 /Times-Roman set_font
24 1000.9 moveto 218 (store Value: \(int 16bit\) %8 in Value: \(int 16bit*\) %1 \($NVM\)) alignedtext
1 setlinewidth
0 0 0 nodecolor
newpath 13.5 994.5 moveto
252.5 994.5 lineto
stroke
0 0 0 nodecolor
7 /Times-Roman set_font
56.5 984.9 moveto 153 (%9 = load  Value: \(int 16bit*\) %1 \($NVM\)) alignedtext
1 setlinewidth
0 0 0 nodecolor
newpath 13.5 978.5 moveto
252.5 978.5 lineto
stroke
0 0 0 nodecolor
7 /Times-Roman set_font
38 968.9 moveto 190 (%10 = add Value: \(int 16bit\) %9, Value: \(int 16bit\) 1) alignedtext
1 setlinewidth
0 0 0 nodecolor
newpath 13.5 962.5 moveto
252.5 962.5 lineto
stroke
0 0 0 nodecolor
7 /Times-Roman set_font
21.5 952.9 moveto 223 (store Value: \(int 16bit\) %10 in Value: \(int 16bit*\) %1 \($NVM\)) alignedtext
1 setlinewidth
0 0 0 nodecolor
newpath 13.5 946.5 moveto
252.5 946.5 lineto
stroke
0 0 0 nodecolor
7 /Times-Roman set_font
54.5 936.9 moveto 157 (%11 = load  Value: \(int 16bit*\) %1 \($NVM\)) alignedtext
1 setlinewidth
0 0 0 nodecolor
newpath 13.5 930.5 moveto
252.5 930.5 lineto
stroke
0 0 0 nodecolor
7 /Times-Roman set_font
35.5 920.9 moveto 195 (%12 = add Value: \(int 16bit\) %11, Value: \(int 16bit\) 1) alignedtext
1 setlinewidth
0 0 0 nodecolor
newpath 13.5 914.5 moveto
252.5 914.5 lineto
stroke
0 0 0 nodecolor
7 /Times-Roman set_font
21.5 904.9 moveto 223 (store Value: \(int 16bit\) %12 in Value: \(int 16bit*\) %1 \($NVM\)) alignedtext
1 setlinewidth
0 0 0 nodecolor
newpath 13.5 898.5 moveto
252.5 898.5 lineto
stroke
0 0 0 nodecolor
7 /Times-Roman set_font
71 888.4 moveto 124 (branch None %20 None [Useless]) alignedtext
grestore
% 13
gsave
1 setlinewidth
0 0 0 nodecolor
newpath 0 595.5 moveto
0 829.5 lineto
266 829.5 lineto
266 595.5 lineto
closepath stroke
0 0 0 nodecolor
15 /Times-Roman set_font
115 814.5 moveto 36 (%13) alignedtext
1 setlinewidth
0 0 0 nodecolor
newpath 0 804.5 moveto
266 804.5 lineto
stroke
0 0 0 nodecolor
7 /Times-Roman set_font
53 794.9 moveto 49 (Cost all NVM) alignedtext
1 setlinewidth
0 0 0 nodecolor
newpath 155 788.5 moveto
155 804.5 lineto
stroke
0 0 0 nodecolor
7 /Times-Roman set_font
208 794.9 moveto 5 (9) alignedtext
1 setlinewidth
0 0 0 nodecolor
newpath 0 788.5 moveto
266 788.5 lineto
stroke
0 0 0 nodecolor
7 /Times-Roman set_font
88.5 778.9 moveto 89 (Variables and nb_access) alignedtext
1 setlinewidth
0 0 0 nodecolor
newpath 0 772.5 moveto
266 772.5 lineto
stroke
0 0 0 nodecolor
7 /Times-Roman set_font
61 762.9 moveto 16 (sum) alignedtext
1 setlinewidth
0 0 0 nodecolor
newpath 138 756.5 moveto
138 772.5 lineto
stroke
0 0 0 nodecolor
7 /Times-Roman set_font
199.5 762.9 moveto 5 (1) alignedtext
1 setlinewidth
0 0 0 nodecolor
newpath 0 756.5 moveto
266 756.5 lineto
stroke
0 0 0 nodecolor
7 /Times-Roman set_font
56 746.9 moveto 37 (@old_sum) alignedtext
1 setlinewidth
0 0 0 nodecolor
newpath 149 740.5 moveto
149 756.5 lineto
stroke
0 0 0 nodecolor
7 /Times-Roman set_font
205 746.9 moveto 5 (1) alignedtext
1 setlinewidth
0 0 0 nodecolor
newpath 0 740.5 moveto
266 740.5 lineto
stroke
0 0 0 nodecolor
7 /Times-Roman set_font
55 730.9 moveto 40 (@variation) alignedtext
1 setlinewidth
0 0 0 nodecolor
newpath 150 724.5 moveto
150 740.5 lineto
stroke
0 0 0 nodecolor
7 /Times-Roman set_font
205.5 730.9 moveto 5 (1) alignedtext
1 setlinewidth
0 0 0 nodecolor
newpath 0 724.5 moveto
266 724.5 lineto
stroke
0 0 0 nodecolor
7 /Times-Roman set_font
55.5 714.9 moveto 38 (nb_packet) alignedtext
1 setlinewidth
0 0 0 nodecolor
newpath 149 708.5 moveto
149 724.5 lineto
stroke
0 0 0 nodecolor
7 /Times-Roman set_font
205 714.9 moveto 5 (1) alignedtext
1 setlinewidth
0 0 0 nodecolor
newpath 0 708.5 moveto
266 708.5 lineto
stroke
0 0 0 nodecolor
7 /Times-Roman set_font
106.5 699.9 moveto 53 ( Instructions ) alignedtext
1 setlinewidth
0 0 0 nodecolor
newpath 0 692.5 moveto
266 692.5 lineto
stroke
0 0 0 nodecolor
7 /Times-Roman set_font
41 682.9 moveto 184 ([%20]  %14 = load  Value: \(int 16bit*\) %1 \($NVM\)) alignedtext
1 setlinewidth
0 0 0 nodecolor
newpath 0 676.5 moveto
266 676.5 lineto
stroke
0 0 0 nodecolor
7 /Times-Roman set_font
41.5 666.9 moveto 183 (%15 = load  Value: \(int 16bit*\) @old_sum \($NVM\)) alignedtext
1 setlinewidth
0 0 0 nodecolor
newpath 0 660.5 moveto
266 660.5 lineto
stroke
0 0 0 nodecolor
7 /Times-Roman set_font
30.5 650.9 moveto 205 (%16 = sub Value: \(int 16bit\) %14, Value: \(int 16bit\) %15) alignedtext
1 setlinewidth
0 0 0 nodecolor
newpath 0 644.5 moveto
266 644.5 lineto
stroke
0 0 0 nodecolor
7 /Times-Roman set_font
8 634.9 moveto 250 (store Value: \(int 16bit\) %16 in Value: \(int 16bit*\) @variation \($NVM\)) alignedtext
1 setlinewidth
0 0 0 nodecolor
newpath 0 628.5 moveto
266 628.5 lineto
stroke
0 0 0 nodecolor
7 /Times-Roman set_font
27.5 618.9 moveto 211 (store Value: \(int 16bit\) 0 in Value: \(int 16bit*\) %2 \($NVM\)) alignedtext
1 setlinewidth
0 0 0 nodecolor
newpath 0 612.5 moveto
266 612.5 lineto
stroke
0 0 0 nodecolor
7 /Times-Roman set_font
71 602.4 moveto 124 (branch None %40 None [Useless]) alignedtext
grestore
% 0->13
gsave
1 setlinewidth
0 0 0 edgecolor
newpath 133 881.3827 moveto
133 865.5264 133 849.8138 133 834.7303 curveto
stroke
0 0 0 edgecolor
newpath 128 830.64 moveto
138 830.6398 lineto
138.0001 832.6398 lineto
128.0001 832.64 lineto
closepath fill
1 setlinewidth
solid
0 0 0 edgecolor
newpath 128 830.64 moveto
138 830.6398 lineto
138.0001 832.6398 lineto
128.0001 832.64 lineto
closepath stroke
1 setlinewidth
solid
0 0 0 edgecolor
newpath 133 829.6399 moveto
133.0001 834.6399 lineto
stroke
0 0 0 edgecolor
14 /Times-Roman set_font
133 851.8 moveto 20 (C2) alignedtext
grestore
% 17
gsave
1 setlinewidth
0 0 0 nodecolor
newpath 0 133.5 moveto
0 543.5 lineto
266 543.5 lineto
266 133.5 lineto
closepath stroke
0 0 0 nodecolor
15 /Times-Roman set_font
115 528.5 moveto 36 (%17) alignedtext
1 setlinewidth
0 0 0 nodecolor
newpath 0 518.5 moveto
266 518.5 lineto
stroke
0 0 0 nodecolor
7 /Times-Roman set_font
51.5 508.9 moveto 49 (Cost all NVM) alignedtext
1 setlinewidth
0 0 0 nodecolor
newpath 152 502.5 moveto
152 518.5 lineto
stroke
0 0 0 nodecolor
7 /Times-Roman set_font
204 508.9 moveto 10 (38) alignedtext
1 setlinewidth
0 0 0 nodecolor
newpath 0 502.5 moveto
266 502.5 lineto
stroke
0 0 0 nodecolor
7 /Times-Roman set_font
88.5 492.9 moveto 89 (Variables and nb_access) alignedtext
1 setlinewidth
0 0 0 nodecolor
newpath 0 486.5 moveto
266 486.5 lineto
stroke
0 0 0 nodecolor
7 /Times-Roman set_font
55 476.9 moveto 40 (@variation) alignedtext
1 setlinewidth
0 0 0 nodecolor
newpath 150 470.5 moveto
150 486.5 lineto
stroke
0 0 0 nodecolor
7 /Times-Roman set_font
205.5 476.9 moveto 5 (6) alignedtext
1 setlinewidth
0 0 0 nodecolor
newpath 0 470.5 moveto
266 470.5 lineto
stroke
0 0 0 nodecolor
7 /Times-Roman set_font
55.5 460.9 moveto 38 (nb_packet) alignedtext
1 setlinewidth
0 0 0 nodecolor
newpath 149 454.5 moveto
149 470.5 lineto
stroke
0 0 0 nodecolor
7 /Times-Roman set_font
205 460.9 moveto 5 (6) alignedtext
1 setlinewidth
0 0 0 nodecolor
newpath 0 454.5 moveto
266 454.5 lineto
stroke
0 0 0 nodecolor
7 /Times-Roman set_font
106.5 445.9 moveto 53 ( Instructions ) alignedtext
1 setlinewidth
0 0 0 nodecolor
newpath 0 438.5 moveto
266 438.5 lineto
stroke
0 0 0 nodecolor
7 /Times-Roman set_font
27.5 428.9 moveto 211 ([%40]  %18 = load  Value: \(int 16bit*\) @variation \($NVM\)) alignedtext
1 setlinewidth
0 0 0 nodecolor
newpath 0 422.5 moveto
266 422.5 lineto
stroke
0 0 0 nodecolor
7 /Times-Roman set_font
37 412.9 moveto 192 (%19 = shl Value: \(int 16bit\) %18, Value: \(int 16bit\) 2) alignedtext
1 setlinewidth
0 0 0 nodecolor
newpath 0 406.5 moveto
266 406.5 lineto
stroke
0 0 0 nodecolor
7 /Times-Roman set_font
8 396.9 moveto 250 (store Value: \(int 16bit\) %19 in Value: \(int 16bit*\) @variation \($NVM\)) alignedtext
1 setlinewidth
0 0 0 nodecolor
newpath 0 390.5 moveto
266 390.5 lineto
stroke
0 0 0 nodecolor
7 /Times-Roman set_font
54.5 380.9 moveto 157 (%20 = load  Value: \(int 16bit*\) %2 \($NVM\)) alignedtext
1 setlinewidth
0 0 0 nodecolor
newpath 0 374.5 moveto
266 374.5 lineto
stroke
0 0 0 nodecolor
7 /Times-Roman set_font
35.5 364.9 moveto 195 (%21 = add Value: \(int 16bit\) %20, Value: \(int 16bit\) 1) alignedtext
1 setlinewidth
0 0 0 nodecolor
newpath 0 358.5 moveto
266 358.5 lineto
stroke
0 0 0 nodecolor
7 /Times-Roman set_font
21.5 348.9 moveto 223 (store Value: \(int 16bit\) %21 in Value: \(int 16bit*\) %2 \($NVM\)) alignedtext
1 setlinewidth
0 0 0 nodecolor
newpath 0 342.5 moveto
266 342.5 lineto
stroke
0 0 0 nodecolor
7 /Times-Roman set_font
40.5 332.9 moveto 185 (%22 = load  Value: \(int 16bit*\) @variation \($NVM\)) alignedtext
1 setlinewidth
0 0 0 nodecolor
newpath 0 326.5 moveto
266 326.5 lineto
stroke
0 0 0 nodecolor
7 /Times-Roman set_font
37 316.9 moveto 192 (%23 = shl Value: \(int 16bit\) %22, Value: \(int 16bit\) 2) alignedtext
1 setlinewidth
0 0 0 nodecolor
newpath 0 310.5 moveto
266 310.5 lineto
stroke
0 0 0 nodecolor
7 /Times-Roman set_font
8 300.9 moveto 250 (store Value: \(int 16bit\) %23 in Value: \(int 16bit*\) @variation \($NVM\)) alignedtext
1 setlinewidth
0 0 0 nodecolor
newpath 0 294.5 moveto
266 294.5 lineto
stroke
0 0 0 nodecolor
7 /Times-Roman set_font
54.5 284.9 moveto 157 (%24 = load  Value: \(int 16bit*\) %2 \($NVM\)) alignedtext
1 setlinewidth
0 0 0 nodecolor
newpath 0 278.5 moveto
266 278.5 lineto
stroke
0 0 0 nodecolor
7 /Times-Roman set_font
35.5 268.9 moveto 195 (%25 = add Value: \(int 16bit\) %24, Value: \(int 16bit\) 1) alignedtext
1 setlinewidth
0 0 0 nodecolor
newpath 0 262.5 moveto
266 262.5 lineto
stroke
0 0 0 nodecolor
7 /Times-Roman set_font
21.5 252.9 moveto 223 (store Value: \(int 16bit\) %25 in Value: \(int 16bit*\) %2 \($NVM\)) alignedtext
1 setlinewidth
0 0 0 nodecolor
newpath 0 246.5 moveto
266 246.5 lineto
stroke
0 0 0 nodecolor
7 /Times-Roman set_font
40.5 236.9 moveto 185 (%26 = load  Value: \(int 16bit*\) @variation \($NVM\)) alignedtext
1 setlinewidth
0 0 0 nodecolor
newpath 0 230.5 moveto
266 230.5 lineto
stroke
0 0 0 nodecolor
7 /Times-Roman set_font
37 220.9 moveto 192 (%27 = shl Value: \(int 16bit\) %26, Value: \(int 16bit\) 2) alignedtext
1 setlinewidth
0 0 0 nodecolor
newpath 0 214.5 moveto
266 214.5 lineto
stroke
0 0 0 nodecolor
7 /Times-Roman set_font
8 204.9 moveto 250 (store Value: \(int 16bit\) %27 in Value: \(int 16bit*\) @variation \($NVM\)) alignedtext
1 setlinewidth
0 0 0 nodecolor
newpath 0 198.5 moveto
266 198.5 lineto
stroke
0 0 0 nodecolor
7 /Times-Roman set_font
54.5 188.9 moveto 157 (%28 = load  Value: \(int 16bit*\) %2 \($NVM\)) alignedtext
1 setlinewidth
0 0 0 nodecolor
newpath 0 182.5 moveto
266 182.5 lineto
stroke
0 0 0 nodecolor
7 /Times-Roman set_font
35.5 172.9 moveto 195 (%29 = add Value: \(int 16bit\) %28, Value: \(int 16bit\) 1) alignedtext
1 setlinewidth
0 0 0 nodecolor
newpath 0 166.5 moveto
266 166.5 lineto
stroke
0 0 0 nodecolor
7 /Times-Roman set_font
21.5 156.9 moveto 223 (store Value: \(int 16bit\) %29 in Value: \(int 16bit*\) %2 \($NVM\)) alignedtext
1 setlinewidth
0 0 0 nodecolor
newpath 0 150.5 moveto
266 150.5 lineto
stroke
0 0 0 nodecolor
7 /Times-Roman set_font
73.5 140.4 moveto 119 (return Value: \(int 16bit\) 0 \($VM\)) alignedtext
grestore
% 13->17
gsave
1 setlinewidth
0 0 0 edgecolor
newpath 133 595.3271 moveto
133 580.4834 133 564.9458 133 549.1773 curveto
stroke
0 0 0 edgecolor
newpath 128 544.8217 moveto
138 544.8215 lineto
138.0001 546.8215 lineto
128.0001 546.8217 lineto
closepath fill
1 setlinewidth
solid
0 0 0 edgecolor
newpath 128 544.8217 moveto
138 544.8215 lineto
138.0001 546.8215 lineto
128.0001 546.8217 lineto
closepath stroke
1 setlinewidth
solid
0 0 0 edgecolor
newpath 133 543.8216 moveto
133.0001 548.8216 lineto
stroke
0 0 0 edgecolor
14 /Times-Roman set_font
133 565.8 moveto 20 (C3) alignedtext
grestore
% END @main
gsave
1 setlinewidth
0 0 0 nodecolor
newpath 67.5 23.5 moveto
67.5 81.5 lineto
198.5 81.5 lineto
198.5 23.5 lineto
closepath stroke
0 0 0 nodecolor
15 /Times-Roman set_font
75.5 66.5 moveto 115 (%END @main) alignedtext
1 setlinewidth
0 0 0 nodecolor
newpath 67.5 56.5 moveto
198.5 56.5 lineto
stroke
0 0 0 nodecolor
7 /Times-Roman set_font
86.5 46.9 moveto 49 (Cost all NVM) alignedtext
1 setlinewidth
0 0 0 nodecolor
newpath 154.5 40.5 moveto
154.5 56.5 lineto
stroke
0 0 0 nodecolor
7 /Times-Roman set_font
174 46.9 moveto 5 (0) alignedtext
1 setlinewidth
0 0 0 nodecolor
newpath 67.5 40.5 moveto
198.5 40.5 lineto
stroke
0 0 0 nodecolor
7 /Times-Roman set_font
106.5 31.4 moveto 53 ( Instructions ) alignedtext
grestore
% 17->END @main
gsave
1 setlinewidth
0 0 0 edgecolor
newpath 133 133.3656 moveto
133 115.7703 133 99.7605 133 86.7724 curveto
stroke
0 0 0 edgecolor
newpath 128 82.7633 moveto
138 82.7631 lineto
138.0001 84.7631 lineto
128.0001 84.7633 lineto
closepath fill
1 setlinewidth
solid
0 0 0 edgecolor
newpath 128 82.7633 moveto
138 82.7631 lineto
138.0001 84.7631 lineto
128.0001 84.7633 lineto
closepath stroke
1 setlinewidth
solid
0 0 0 edgecolor
newpath 133 81.7632 moveto
133.0001 86.7632 lineto
stroke
0 0 0 edgecolor
14 /Times-Roman set_font
133 103.8 moveto 20 (C4) alignedtext
grestore
% START @main
gsave
1 setlinewidth
0 0 0 nodecolor
newpath 58 1327.5 moveto
58 1385.5 lineto
208 1385.5 lineto
208 1327.5 lineto
closepath stroke
0 0 0 nodecolor
15 /Times-Roman set_font
66 1370.5 moveto 134 (%START @main) alignedtext
1 setlinewidth
0 0 0 nodecolor
newpath 58 1360.5 moveto
208 1360.5 lineto
stroke
0 0 0 nodecolor
7 /Times-Roman set_font
82 1350.9 moveto 49 (Cost all NVM) alignedtext
1 setlinewidth
0 0 0 nodecolor
newpath 155 1344.5 moveto
155 1360.5 lineto
stroke
0 0 0 nodecolor
7 /Times-Roman set_font
179 1350.9 moveto 5 (0) alignedtext
1 setlinewidth
0 0 0 nodecolor
newpath 58 1344.5 moveto
208 1344.5 lineto
stroke
0 0 0 nodecolor
7 /Times-Roman set_font
106.5 1335.4 moveto 53 ( Instructions ) alignedtext
grestore
% START @main->0
gsave
1 setlinewidth
0 0 0 edgecolor
newpath 133 1327.2602 moveto
133 1314.6392 133 1298.5713 133 1280.6997 curveto
stroke
0 0 0 edgecolor
newpath 128 1276.6126 moveto
138 1276.6125 lineto
138.0001 1278.6125 lineto
128.0001 1278.6126 lineto
closepath fill
1 setlinewidth
solid
0 0 0 edgecolor
newpath 128 1276.6126 moveto
138 1276.6125 lineto
138.0001 1278.6125 lineto
128.0001 1278.6126 lineto
closepath stroke
1 setlinewidth
solid
0 0 0 edgecolor
newpath 133 1275.6126 moveto
133.0001 1280.6126 lineto
stroke
0 0 0 edgecolor
14 /Times-Roman set_font
133 1297.8 moveto 20 (C1) alignedtext
grestore
endpage
showpage
grestore
%%PageTrailer
%%EndPage: 1
%%Trailer
end
restore
%%EOF
