; ModuleID = 'main.c'
source_filename = "main.c"
target datalayout = "e-m:e-p:16:16-i32:16-i64:16-f32:16-f64:16-a:8-n8:16-S16"
target triple = "msp430"

@invfft = dso_local global i16 0, align 2, !dbg !0
@MAXSIZE = common dso_local global i16 0, align 2, !dbg !6
@realin = internal global [1024 x float] zeroinitializer, align 4, !dbg !9
@imagin = internal global [1024 x float] zeroinitializer, align 4, !dbg !15
@realout = internal global [1024 x float] zeroinitializer, align 4, !dbg !17
@imagout = internal global [1024 x float] zeroinitializer, align 4, !dbg !19
@Coeff = internal global [16 x float] zeroinitializer, align 4, !dbg !21
@Amp = internal global [16 x float] zeroinitializer, align 4, !dbg !26

; Function Attrs: noinline nounwind optnone
define dso_local i16 @main() #0 !dbg !33 {
  %1 = alloca i16, align 2
  store i16 0, i16* %1, align 2
  %2 = call i16 bitcast (i16 (...)* @restore to i16 ()*)(), !dbg !36
  store i16 128, i16* @MAXSIZE, align 2, !dbg !37
  %3 = call i16 @old_main(), !dbg !38
  store i16 1, i16* @invfft, align 2, !dbg !39
  store i16 256, i16* @MAXSIZE, align 2, !dbg !40
  %4 = call i16 @old_main(), !dbg !41
  ret i16 0, !dbg !42
}

declare dso_local i16 @restore(...) #1

; Function Attrs: noinline nounwind optnone
define dso_local i16 @old_main() #0 !dbg !43 {
  %1 = alloca i16, align 2
  %2 = alloca i16, align 2
  %3 = alloca float*, align 2
  %4 = alloca float*, align 2
  %5 = alloca float*, align 2
  %6 = alloca float*, align 2
  %7 = alloca float*, align 2
  %8 = alloca float*, align 2
  call void @llvm.dbg.declare(metadata i16* %1, metadata !44, metadata !DIExpression()), !dbg !45
  call void @llvm.dbg.declare(metadata i16* %2, metadata !46, metadata !DIExpression()), !dbg !47
  call void @llvm.dbg.declare(metadata float** %3, metadata !48, metadata !DIExpression()), !dbg !50
  call void @llvm.dbg.declare(metadata float** %4, metadata !51, metadata !DIExpression()), !dbg !52
  call void @llvm.dbg.declare(metadata float** %5, metadata !53, metadata !DIExpression()), !dbg !54
  call void @llvm.dbg.declare(metadata float** %6, metadata !55, metadata !DIExpression()), !dbg !56
  call void @llvm.dbg.declare(metadata float** %7, metadata !57, metadata !DIExpression()), !dbg !58
  call void @llvm.dbg.declare(metadata float** %8, metadata !59, metadata !DIExpression()), !dbg !60
  %9 = call i16 bitcast (i16 (...)* @srand to i16 (i16)*)(i16 1), !dbg !61
  store float* getelementptr inbounds ([1024 x float], [1024 x float]* @realin, i32 0, i32 0), float** %3, align 2, !dbg !62
  store float* getelementptr inbounds ([1024 x float], [1024 x float]* @imagin, i32 0, i32 0), float** %4, align 2, !dbg !63
  store float* getelementptr inbounds ([1024 x float], [1024 x float]* @realout, i32 0, i32 0), float** %5, align 2, !dbg !64
  store float* getelementptr inbounds ([1024 x float], [1024 x float]* @imagout, i32 0, i32 0), float** %6, align 2, !dbg !65
  store float* getelementptr inbounds ([16 x float], [16 x float]* @Coeff, i32 0, i32 0), float** %7, align 2, !dbg !66
  store float* getelementptr inbounds ([16 x float], [16 x float]* @Amp, i32 0, i32 0), float** %8, align 2, !dbg !67
  store i16 0, i16* %1, align 2, !dbg !68
  br label %10, !dbg !70

; <label>:10:                                     ; preds = %27, %0
  %11 = load i16, i16* %1, align 2, !dbg !71
  %12 = icmp ult i16 %11, 4, !dbg !73
  br i1 %12, label %13, label %30, !dbg !74

; <label>:13:                                     ; preds = %10
  %14 = call i16 bitcast (i16 (...)* @__max_iter to i16 (i16)*)(i16 4), !dbg !75
  %15 = call i16 bitcast (i16 (...)* @rand to i16 ()*)(), !dbg !77
  %16 = srem i16 %15, 1000, !dbg !78
  %17 = sitofp i16 %16 to float, !dbg !77
  %18 = load float*, float** %7, align 2, !dbg !79
  %19 = load i16, i16* %1, align 2, !dbg !80
  %20 = getelementptr inbounds float, float* %18, i16 %19, !dbg !79
  store float %17, float* %20, align 4, !dbg !81
  %21 = call i16 bitcast (i16 (...)* @rand to i16 ()*)(), !dbg !82
  %22 = srem i16 %21, 1000, !dbg !83
  %23 = sitofp i16 %22 to float, !dbg !82
  %24 = load float*, float** %8, align 2, !dbg !84
  %25 = load i16, i16* %1, align 2, !dbg !85
  %26 = getelementptr inbounds float, float* %24, i16 %25, !dbg !84
  store float %23, float* %26, align 4, !dbg !86
  br label %27, !dbg !87

; <label>:27:                                     ; preds = %13
  %28 = load i16, i16* %1, align 2, !dbg !88
  %29 = add i16 %28, 1, !dbg !88
  store i16 %29, i16* %1, align 2, !dbg !88
  br label %10, !dbg !89, !llvm.loop !90

; <label>:30:                                     ; preds = %10
  store i16 0, i16* %1, align 2, !dbg !92
  br label %31, !dbg !94

; <label>:31:                                     ; preds = %102, %30
  %32 = load i16, i16* %1, align 2, !dbg !95
  %33 = load i16, i16* @MAXSIZE, align 2, !dbg !97
  %34 = icmp ult i16 %32, %33, !dbg !98
  br i1 %34, label %35, label %105, !dbg !99

; <label>:35:                                     ; preds = %31
  %36 = call i16 bitcast (i16 (...)* @__max_iter to i16 (i16)*)(i16 256), !dbg !100
  %37 = load float*, float** %3, align 2, !dbg !102
  %38 = load i16, i16* %1, align 2, !dbg !103
  %39 = getelementptr inbounds float, float* %37, i16 %38, !dbg !102
  store float 0.000000e+00, float* %39, align 4, !dbg !104
  store i16 0, i16* %2, align 2, !dbg !105
  br label %40, !dbg !107

; <label>:40:                                     ; preds = %98, %35
  %41 = load i16, i16* %2, align 2, !dbg !108
  %42 = icmp ult i16 %41, 4, !dbg !110
  br i1 %42, label %43, label %101, !dbg !111

; <label>:43:                                     ; preds = %40
  %44 = call i16 bitcast (i16 (...)* @__max_iter to i16 (i16)*)(i16 4), !dbg !112
  %45 = call i16 bitcast (i16 (...)* @rand to i16 ()*)(), !dbg !114
  %46 = srem i16 %45, 2, !dbg !116
  %47 = icmp ne i16 %46, 0, !dbg !116
  br i1 %47, label %48, label %71, !dbg !117

; <label>:48:                                     ; preds = %43
  %49 = load float*, float** %7, align 2, !dbg !118
  %50 = load i16, i16* %2, align 2, !dbg !120
  %51 = getelementptr inbounds float, float* %49, i16 %50, !dbg !118
  %52 = load float, float* %51, align 4, !dbg !118
  %53 = fpext float %52 to double, !dbg !118
  %54 = load float*, float** %8, align 2, !dbg !121
  %55 = load i16, i16* %2, align 2, !dbg !122
  %56 = getelementptr inbounds float, float* %54, i16 %55, !dbg !121
  %57 = load float, float* %56, align 4, !dbg !121
  %58 = load i16, i16* %1, align 2, !dbg !123
  %59 = uitofp i16 %58 to float, !dbg !123
  %60 = fmul float %57, %59, !dbg !124
  %61 = fpext float %60 to double, !dbg !121
  %62 = call double @cos(double %61) #4, !dbg !125
  %63 = fmul double %53, %62, !dbg !126
  %64 = load float*, float** %3, align 2, !dbg !127
  %65 = load i16, i16* %1, align 2, !dbg !128
  %66 = getelementptr inbounds float, float* %64, i16 %65, !dbg !127
  %67 = load float, float* %66, align 4, !dbg !129
  %68 = fpext float %67 to double, !dbg !129
  %69 = fadd double %68, %63, !dbg !129
  %70 = fptrunc double %69 to float, !dbg !129
  store float %70, float* %66, align 4, !dbg !129
  br label %94, !dbg !130

; <label>:71:                                     ; preds = %43
  %72 = load float*, float** %7, align 2, !dbg !131
  %73 = load i16, i16* %2, align 2, !dbg !133
  %74 = getelementptr inbounds float, float* %72, i16 %73, !dbg !131
  %75 = load float, float* %74, align 4, !dbg !131
  %76 = fpext float %75 to double, !dbg !131
  %77 = load float*, float** %8, align 2, !dbg !134
  %78 = load i16, i16* %2, align 2, !dbg !135
  %79 = getelementptr inbounds float, float* %77, i16 %78, !dbg !134
  %80 = load float, float* %79, align 4, !dbg !134
  %81 = load i16, i16* %1, align 2, !dbg !136
  %82 = uitofp i16 %81 to float, !dbg !136
  %83 = fmul float %80, %82, !dbg !137
  %84 = fpext float %83 to double, !dbg !134
  %85 = call double @sin(double %84) #4, !dbg !138
  %86 = fmul double %76, %85, !dbg !139
  %87 = load float*, float** %3, align 2, !dbg !140
  %88 = load i16, i16* %1, align 2, !dbg !141
  %89 = getelementptr inbounds float, float* %87, i16 %88, !dbg !140
  %90 = load float, float* %89, align 4, !dbg !142
  %91 = fpext float %90 to double, !dbg !142
  %92 = fadd double %91, %86, !dbg !142
  %93 = fptrunc double %92 to float, !dbg !142
  store float %93, float* %89, align 4, !dbg !142
  br label %94

; <label>:94:                                     ; preds = %71, %48
  %95 = load float*, float** %4, align 2, !dbg !143
  %96 = load i16, i16* %1, align 2, !dbg !144
  %97 = getelementptr inbounds float, float* %95, i16 %96, !dbg !143
  store float 0.000000e+00, float* %97, align 4, !dbg !145
  br label %98, !dbg !146

; <label>:98:                                     ; preds = %94
  %99 = load i16, i16* %2, align 2, !dbg !147
  %100 = add i16 %99, 1, !dbg !147
  store i16 %100, i16* %2, align 2, !dbg !147
  br label %40, !dbg !148, !llvm.loop !149

; <label>:101:                                    ; preds = %40
  br label %102, !dbg !151

; <label>:102:                                    ; preds = %101
  %103 = load i16, i16* %1, align 2, !dbg !152
  %104 = add i16 %103, 1, !dbg !152
  store i16 %104, i16* %1, align 2, !dbg !152
  br label %31, !dbg !153, !llvm.loop !154

; <label>:105:                                    ; preds = %31
  %106 = load i16, i16* @MAXSIZE, align 2, !dbg !156
  %107 = load i16, i16* @invfft, align 2, !dbg !157
  %108 = load float*, float** %3, align 2, !dbg !158
  %109 = load float*, float** %4, align 2, !dbg !159
  %110 = load float*, float** %5, align 2, !dbg !160
  %111 = load float*, float** %6, align 2, !dbg !161
  call void @fft_float(i16 %106, i16 %107, float* %108, float* %109, float* %110, float* %111), !dbg !162
  %112 = call i16 bitcast (i16 (...)* @checkpoint to i16 ()*)(), !dbg !163
  ret i16 0, !dbg !164
}

; Function Attrs: nounwind readnone speculatable
declare void @llvm.dbg.declare(metadata, metadata, metadata) #2

declare dso_local i16 @srand(...) #1

declare dso_local i16 @__max_iter(...) #1

declare dso_local i16 @rand(...) #1

; Function Attrs: nounwind
declare dso_local double @cos(double) #3

; Function Attrs: nounwind
declare dso_local double @sin(double) #3

declare dso_local void @fft_float(i16, i16, float*, float*, float*, float*) #1

declare dso_local i16 @checkpoint(...) #1

attributes #0 = { noinline nounwind optnone "correctly-rounded-divide-sqrt-fp-math"="false" "disable-tail-calls"="false" "less-precise-fpmad"="false" "min-legal-vector-width"="0" "no-frame-pointer-elim"="true" "no-frame-pointer-elim-non-leaf" "no-infs-fp-math"="false" "no-jump-tables"="false" "no-nans-fp-math"="false" "no-signed-zeros-fp-math"="false" "no-trapping-math"="false" "stack-protector-buffer-size"="8" "unsafe-fp-math"="false" "use-soft-float"="false" }
attributes #1 = { "correctly-rounded-divide-sqrt-fp-math"="false" "disable-tail-calls"="false" "less-precise-fpmad"="false" "no-frame-pointer-elim"="true" "no-frame-pointer-elim-non-leaf" "no-infs-fp-math"="false" "no-nans-fp-math"="false" "no-signed-zeros-fp-math"="false" "no-trapping-math"="false" "stack-protector-buffer-size"="8" "unsafe-fp-math"="false" "use-soft-float"="false" }
attributes #2 = { nounwind readnone speculatable }
attributes #3 = { nounwind "correctly-rounded-divide-sqrt-fp-math"="false" "disable-tail-calls"="false" "less-precise-fpmad"="false" "no-frame-pointer-elim"="true" "no-frame-pointer-elim-non-leaf" "no-infs-fp-math"="false" "no-nans-fp-math"="false" "no-signed-zeros-fp-math"="false" "no-trapping-math"="false" "stack-protector-buffer-size"="8" "unsafe-fp-math"="false" "use-soft-float"="false" }
attributes #4 = { nounwind }

!llvm.dbg.cu = !{!2}
!llvm.module.flags = !{!29, !30, !31}
!llvm.ident = !{!32}

!0 = !DIGlobalVariableExpression(var: !1, expr: !DIExpression())
!1 = distinct !DIGlobalVariable(name: "invfft", scope: !2, file: !3, line: 5, type: !28, isLocal: false, isDefinition: true)
!2 = distinct !DICompileUnit(language: DW_LANG_C99, file: !3, producer: "clang version 8.0.1-9 (tags/RELEASE_801/final)", isOptimized: false, runtimeVersion: 0, emissionKind: FullDebug, enums: !4, globals: !5, nameTableKind: None)
!3 = !DIFile(filename: "main.c", directory: "/home/user/Desktop/alfred/samples/fft")
!4 = !{}
!5 = !{!0, !6, !9, !15, !17, !19, !21, !26}
!6 = !DIGlobalVariableExpression(var: !7, expr: !DIExpression())
!7 = distinct !DIGlobalVariable(name: "MAXSIZE", scope: !2, file: !3, line: 6, type: !8, isLocal: false, isDefinition: true)
!8 = !DIBasicType(name: "unsigned int", size: 16, encoding: DW_ATE_unsigned)
!9 = !DIGlobalVariableExpression(var: !10, expr: !DIExpression())
!10 = distinct !DIGlobalVariable(name: "realin", scope: !2, file: !3, line: 8, type: !11, isLocal: true, isDefinition: true)
!11 = !DICompositeType(tag: DW_TAG_array_type, baseType: !12, size: 32768, elements: !13)
!12 = !DIBasicType(name: "float", size: 32, encoding: DW_ATE_float)
!13 = !{!14}
!14 = !DISubrange(count: 1024)
!15 = !DIGlobalVariableExpression(var: !16, expr: !DIExpression())
!16 = distinct !DIGlobalVariable(name: "imagin", scope: !2, file: !3, line: 9, type: !11, isLocal: true, isDefinition: true)
!17 = !DIGlobalVariableExpression(var: !18, expr: !DIExpression())
!18 = distinct !DIGlobalVariable(name: "realout", scope: !2, file: !3, line: 10, type: !11, isLocal: true, isDefinition: true)
!19 = !DIGlobalVariableExpression(var: !20, expr: !DIExpression())
!20 = distinct !DIGlobalVariable(name: "imagout", scope: !2, file: !3, line: 11, type: !11, isLocal: true, isDefinition: true)
!21 = !DIGlobalVariableExpression(var: !22, expr: !DIExpression())
!22 = distinct !DIGlobalVariable(name: "Coeff", scope: !2, file: !3, line: 12, type: !23, isLocal: true, isDefinition: true)
!23 = !DICompositeType(tag: DW_TAG_array_type, baseType: !12, size: 512, elements: !24)
!24 = !{!25}
!25 = !DISubrange(count: 16)
!26 = !DIGlobalVariableExpression(var: !27, expr: !DIExpression())
!27 = distinct !DIGlobalVariable(name: "Amp", scope: !2, file: !3, line: 13, type: !23, isLocal: true, isDefinition: true)
!28 = !DIBasicType(name: "int", size: 16, encoding: DW_ATE_signed)
!29 = !{i32 2, !"Dwarf Version", i32 4}
!30 = !{i32 2, !"Debug Info Version", i32 3}
!31 = !{i32 1, !"wchar_size", i32 2}
!32 = !{!"clang version 8.0.1-9 (tags/RELEASE_801/final)"}
!33 = distinct !DISubprogram(name: "main", scope: !3, file: !3, line: 18, type: !34, scopeLine: 18, spFlags: DISPFlagDefinition, unit: !2, retainedNodes: !4)
!34 = !DISubroutineType(types: !35)
!35 = !{!28}
!36 = !DILocation(line: 19, column: 5, scope: !33)
!37 = !DILocation(line: 20, column: 13, scope: !33)
!38 = !DILocation(line: 21, column: 5, scope: !33)
!39 = !DILocation(line: 22, column: 12, scope: !33)
!40 = !DILocation(line: 23, column: 13, scope: !33)
!41 = !DILocation(line: 24, column: 5, scope: !33)
!42 = !DILocation(line: 25, column: 5, scope: !33)
!43 = distinct !DISubprogram(name: "old_main", scope: !3, file: !3, line: 28, type: !34, scopeLine: 28, spFlags: DISPFlagDefinition, unit: !2, retainedNodes: !4)
!44 = !DILocalVariable(name: "i", scope: !43, file: !3, line: 29, type: !8)
!45 = !DILocation(line: 29, column: 11, scope: !43)
!46 = !DILocalVariable(name: "j", scope: !43, file: !3, line: 29, type: !8)
!47 = !DILocation(line: 29, column: 13, scope: !43)
!48 = !DILocalVariable(name: "RealIn", scope: !43, file: !3, line: 30, type: !49)
!49 = !DIDerivedType(tag: DW_TAG_pointer_type, baseType: !12, size: 16)
!50 = !DILocation(line: 30, column: 9, scope: !43)
!51 = !DILocalVariable(name: "ImagIn", scope: !43, file: !3, line: 31, type: !49)
!52 = !DILocation(line: 31, column: 9, scope: !43)
!53 = !DILocalVariable(name: "RealOut", scope: !43, file: !3, line: 32, type: !49)
!54 = !DILocation(line: 32, column: 9, scope: !43)
!55 = !DILocalVariable(name: "ImagOut", scope: !43, file: !3, line: 33, type: !49)
!56 = !DILocation(line: 33, column: 9, scope: !43)
!57 = !DILocalVariable(name: "coeff", scope: !43, file: !3, line: 34, type: !49)
!58 = !DILocation(line: 34, column: 9, scope: !43)
!59 = !DILocalVariable(name: "amp", scope: !43, file: !3, line: 35, type: !49)
!60 = !DILocation(line: 35, column: 9, scope: !43)
!61 = !DILocation(line: 38, column: 2, scope: !43)
!62 = !DILocation(line: 49, column: 9, scope: !43)
!63 = !DILocation(line: 50, column: 9, scope: !43)
!64 = !DILocation(line: 51, column: 10, scope: !43)
!65 = !DILocation(line: 52, column: 10, scope: !43)
!66 = !DILocation(line: 53, column: 8, scope: !43)
!67 = !DILocation(line: 54, column: 6, scope: !43)
!68 = !DILocation(line: 57, column: 7, scope: !69)
!69 = distinct !DILexicalBlock(scope: !43, file: !3, line: 57, column: 2)
!70 = !DILocation(line: 57, column: 6, scope: !69)
!71 = !DILocation(line: 57, column: 10, scope: !72)
!72 = distinct !DILexicalBlock(scope: !69, file: !3, line: 57, column: 2)
!73 = !DILocation(line: 57, column: 11, scope: !72)
!74 = !DILocation(line: 57, column: 2, scope: !69)
!75 = !DILocation(line: 59, column: 6, scope: !76)
!76 = distinct !DILexicalBlock(scope: !72, file: !3, line: 58, column: 2)
!77 = !DILocation(line: 60, column: 14, scope: !76)
!78 = !DILocation(line: 60, column: 20, scope: !76)
!79 = !DILocation(line: 60, column: 3, scope: !76)
!80 = !DILocation(line: 60, column: 9, scope: !76)
!81 = !DILocation(line: 60, column: 12, scope: !76)
!82 = !DILocation(line: 61, column: 12, scope: !76)
!83 = !DILocation(line: 61, column: 18, scope: !76)
!84 = !DILocation(line: 61, column: 3, scope: !76)
!85 = !DILocation(line: 61, column: 7, scope: !76)
!86 = !DILocation(line: 61, column: 10, scope: !76)
!87 = !DILocation(line: 63, column: 2, scope: !76)
!88 = !DILocation(line: 57, column: 22, scope: !72)
!89 = !DILocation(line: 57, column: 2, scope: !72)
!90 = distinct !{!90, !74, !91}
!91 = !DILocation(line: 63, column: 2, scope: !69)
!92 = !DILocation(line: 64, column: 7, scope: !93)
!93 = distinct !DILexicalBlock(scope: !43, file: !3, line: 64, column: 2)
!94 = !DILocation(line: 64, column: 6, scope: !93)
!95 = !DILocation(line: 64, column: 10, scope: !96)
!96 = distinct !DILexicalBlock(scope: !93, file: !3, line: 64, column: 2)
!97 = !DILocation(line: 64, column: 12, scope: !96)
!98 = !DILocation(line: 64, column: 11, scope: !96)
!99 = !DILocation(line: 64, column: 2, scope: !93)
!100 = !DILocation(line: 66, column: 5, scope: !101)
!101 = distinct !DILexicalBlock(scope: !96, file: !3, line: 65, column: 2)
!102 = !DILocation(line: 68, column: 3, scope: !101)
!103 = !DILocation(line: 68, column: 10, scope: !101)
!104 = !DILocation(line: 68, column: 12, scope: !101)
!105 = !DILocation(line: 69, column: 8, scope: !106)
!106 = distinct !DILexicalBlock(scope: !101, file: !3, line: 69, column: 3)
!107 = !DILocation(line: 69, column: 7, scope: !106)
!108 = !DILocation(line: 69, column: 11, scope: !109)
!109 = distinct !DILexicalBlock(scope: !106, file: !3, line: 69, column: 3)
!110 = !DILocation(line: 69, column: 12, scope: !109)
!111 = !DILocation(line: 69, column: 3, scope: !106)
!112 = !DILocation(line: 71, column: 7, scope: !113)
!113 = distinct !DILexicalBlock(scope: !109, file: !3, line: 70, column: 3)
!114 = !DILocation(line: 73, column: 8, scope: !115)
!115 = distinct !DILexicalBlock(scope: !113, file: !3, line: 73, column: 8)
!116 = !DILocation(line: 73, column: 14, scope: !115)
!117 = !DILocation(line: 73, column: 8, scope: !113)
!118 = !DILocation(line: 75, column: 17, scope: !119)
!119 = distinct !DILexicalBlock(scope: !115, file: !3, line: 74, column: 4)
!120 = !DILocation(line: 75, column: 23, scope: !119)
!121 = !DILocation(line: 75, column: 30, scope: !119)
!122 = !DILocation(line: 75, column: 34, scope: !119)
!123 = !DILocation(line: 75, column: 37, scope: !119)
!124 = !DILocation(line: 75, column: 36, scope: !119)
!125 = !DILocation(line: 75, column: 26, scope: !119)
!126 = !DILocation(line: 75, column: 25, scope: !119)
!127 = !DILocation(line: 75, column: 6, scope: !119)
!128 = !DILocation(line: 75, column: 13, scope: !119)
!129 = !DILocation(line: 75, column: 15, scope: !119)
!130 = !DILocation(line: 76, column: 4, scope: !119)
!131 = !DILocation(line: 79, column: 16, scope: !132)
!132 = distinct !DILexicalBlock(scope: !115, file: !3, line: 78, column: 4)
!133 = !DILocation(line: 79, column: 22, scope: !132)
!134 = !DILocation(line: 79, column: 29, scope: !132)
!135 = !DILocation(line: 79, column: 33, scope: !132)
!136 = !DILocation(line: 79, column: 36, scope: !132)
!137 = !DILocation(line: 79, column: 35, scope: !132)
!138 = !DILocation(line: 79, column: 25, scope: !132)
!139 = !DILocation(line: 79, column: 24, scope: !132)
!140 = !DILocation(line: 79, column: 5, scope: !132)
!141 = !DILocation(line: 79, column: 12, scope: !132)
!142 = !DILocation(line: 79, column: 14, scope: !132)
!143 = !DILocation(line: 81, column: 5, scope: !113)
!144 = !DILocation(line: 81, column: 12, scope: !113)
!145 = !DILocation(line: 81, column: 14, scope: !113)
!146 = !DILocation(line: 83, column: 3, scope: !113)
!147 = !DILocation(line: 69, column: 23, scope: !109)
!148 = !DILocation(line: 69, column: 3, scope: !109)
!149 = distinct !{!149, !111, !150}
!150 = !DILocation(line: 83, column: 3, scope: !106)
!151 = !DILocation(line: 85, column: 2, scope: !101)
!152 = !DILocation(line: 64, column: 21, scope: !96)
!153 = !DILocation(line: 64, column: 2, scope: !96)
!154 = distinct !{!154, !99, !155}
!155 = !DILocation(line: 85, column: 2, scope: !93)
!156 = !DILocation(line: 88, column: 13, scope: !43)
!157 = !DILocation(line: 88, column: 21, scope: !43)
!158 = !DILocation(line: 88, column: 28, scope: !43)
!159 = !DILocation(line: 88, column: 35, scope: !43)
!160 = !DILocation(line: 88, column: 42, scope: !43)
!161 = !DILocation(line: 88, column: 50, scope: !43)
!162 = !DILocation(line: 88, column: 2, scope: !43)
!163 = !DILocation(line: 100, column: 2, scope: !43)
!164 = !DILocation(line: 101, column: 2, scope: !43)
