%!PS-Adobe-3.0 EPSF-3.0
%%Creator: graphviz version 2.43.0 (0)
%%Title: @main
%%Pages: 1
%%BoundingBox: 36 36 540 1046
%%EndComments
save
%%BeginProlog
/DotDict 200 dict def
DotDict begin

/setupLatin1 {
mark
/EncodingVector 256 array def
 EncodingVector 0

ISOLatin1Encoding 0 255 getinterval putinterval
EncodingVector 45 /hyphen put

% Set up ISO Latin 1 character encoding
/starnetISO {
        dup dup findfont dup length dict begin
        { 1 index /FID ne { def }{ pop pop } ifelse
        } forall
        /Encoding EncodingVector def
        currentdict end definefont
} def
/Times-Roman starnetISO def
/Times-Italic starnetISO def
/Times-Bold starnetISO def
/Times-BoldItalic starnetISO def
/Helvetica starnetISO def
/Helvetica-Oblique starnetISO def
/Helvetica-Bold starnetISO def
/Helvetica-BoldOblique starnetISO def
/Courier starnetISO def
/Courier-Oblique starnetISO def
/Courier-Bold starnetISO def
/Courier-BoldOblique starnetISO def
cleartomark
} bind def

%%BeginResource: procset graphviz 0 0
/coord-font-family /Times-Roman def
/default-font-family /Times-Roman def
/coordfont coord-font-family findfont 8 scalefont def

/InvScaleFactor 1.0 def
/set_scale {
       dup 1 exch div /InvScaleFactor exch def
       scale
} bind def

% styles
/solid { [] 0 setdash } bind def
/dashed { [9 InvScaleFactor mul dup ] 0 setdash } bind def
/dotted { [1 InvScaleFactor mul 6 InvScaleFactor mul] 0 setdash } bind def
/invis {/fill {newpath} def /stroke {newpath} def /show {pop newpath} def} bind def
/bold { 2 setlinewidth } bind def
/filled { } bind def
/unfilled { } bind def
/rounded { } bind def
/diagonals { } bind def
/tapered { } bind def

% hooks for setting color 
/nodecolor { sethsbcolor } bind def
/edgecolor { sethsbcolor } bind def
/graphcolor { sethsbcolor } bind def
/nopcolor {pop pop pop} bind def

/beginpage {	% i j npages
	/npages exch def
	/j exch def
	/i exch def
	/str 10 string def
	npages 1 gt {
		gsave
			coordfont setfont
			0 0 moveto
			(\() show i str cvs show (,) show j str cvs show (\)) show
		grestore
	} if
} bind def

/set_font {
	findfont exch
	scalefont setfont
} def

% draw text fitted to its expected width
/alignedtext {			% width text
	/text exch def
	/width exch def
	gsave
		width 0 gt {
			[] 0 setdash
			text stringwidth pop width exch sub text length div 0 text ashow
		} if
	grestore
} def

/boxprim {				% xcorner ycorner xsize ysize
		4 2 roll
		moveto
		2 copy
		exch 0 rlineto
		0 exch rlineto
		pop neg 0 rlineto
		closepath
} bind def

/ellipse_path {
	/ry exch def
	/rx exch def
	/y exch def
	/x exch def
	matrix currentmatrix
	newpath
	x y translate
	rx ry scale
	0 0 1 0 360 arc
	setmatrix
} bind def

/endpage { showpage } bind def
/showpage { } def

/layercolorseq
	[	% layer color sequence - darkest to lightest
		[0 0 0]
		[.2 .8 .8]
		[.4 .8 .8]
		[.6 .8 .8]
		[.8 .8 .8]
	]
def

/layerlen layercolorseq length def

/setlayer {/maxlayer exch def /curlayer exch def
	layercolorseq curlayer 1 sub layerlen mod get
	aload pop sethsbcolor
	/nodecolor {nopcolor} def
	/edgecolor {nopcolor} def
	/graphcolor {nopcolor} def
} bind def

/onlayer { curlayer ne {invis} if } def

/onlayers {
	/myupper exch def
	/mylower exch def
	curlayer mylower lt
	curlayer myupper gt
	or
	{invis} if
} def

/curlayer 0 def

%%EndResource
%%EndProlog
%%BeginSetup
14 default-font-family set_font
% /arrowlength 10 def
% /arrowwidth 5 def

% make sure pdfmark is harmless for PS-interpreters other than Distiller
/pdfmark where {pop} {userdict /pdfmark /cleartomark load put} ifelse
% make '<<' and '>>' safe on PS Level 1 devices
/languagelevel where {pop languagelevel}{1} ifelse
2 lt {
    userdict (<<) cvn ([) cvn load put
    userdict (>>) cvn ([) cvn load put
} if

%%EndSetup
setupLatin1
%%Page: 1 1
%%PageBoundingBox: 36 36 540 1046
%%PageOrientation: Portrait
0 0 1 beginpage
gsave
36 36 504 1010 boxprim clip newpath
1 1 set_scale 0 rotate 40 40 translate
0 0 0 graphcolor
14 /Times-Roman set_font
207 7.8 moveto 82 (CFG before) alignedtext
% 0
gsave
1 setlinewidth
0 0 0 nodecolor
newpath 131 561.5 moveto
131 891.5 lineto
364 891.5 lineto
364 561.5 lineto
closepath stroke
0 0 0 nodecolor
15 /Times-Roman set_font
215.5 876.5 moveto 64 (%0\(%0\)) alignedtext
1 setlinewidth
0 0 0 nodecolor
newpath 131 866.5 moveto
364 866.5 lineto
stroke
0 0 0 nodecolor
7 /Times-Roman set_font
174.5 856.9 moveto 49 (Cost all NVM) alignedtext
1 setlinewidth
0 0 0 nodecolor
newpath 267 850.5 moveto
267 866.5 lineto
stroke
0 0 0 nodecolor
7 /Times-Roman set_font
310.5 856.9 moveto 10 (18) alignedtext
1 setlinewidth
0 0 0 nodecolor
newpath 131 850.5 moveto
364 850.5 lineto
stroke
0 0 0 nodecolor
7 /Times-Roman set_font
203 840.9 moveto 89 (Variables and nb_access) alignedtext
1 setlinewidth
0 0 0 nodecolor
newpath 131 834.5 moveto
364 834.5 lineto
stroke
0 0 0 nodecolor
7 /Times-Roman set_font
172.5 824.9 moveto 61 (main.first_alloca) alignedtext
1 setlinewidth
0 0 0 nodecolor
newpath 275 818.5 moveto
275 834.5 lineto
stroke
0 0 0 nodecolor
7 /Times-Roman set_font
317 824.9 moveto 5 (1) alignedtext
1 setlinewidth
0 0 0 nodecolor
newpath 131 818.5 moveto
364 818.5 lineto
stroke
0 0 0 nodecolor
7 /Times-Roman set_font
181.5 808.9 moveto 25 (main.a) alignedtext
1 setlinewidth
0 0 0 nodecolor
newpath 257 802.5 moveto
257 818.5 lineto
stroke
0 0 0 nodecolor
7 /Times-Roman set_font
308 808.9 moveto 5 (2) alignedtext
1 setlinewidth
0 0 0 nodecolor
newpath 131 802.5 moveto
364 802.5 lineto
stroke
0 0 0 nodecolor
7 /Times-Roman set_font
181.5 792.9 moveto 25 (main.b) alignedtext
1 setlinewidth
0 0 0 nodecolor
newpath 257 786.5 moveto
257 802.5 lineto
stroke
0 0 0 nodecolor
7 /Times-Roman set_font
308 792.9 moveto 5 (2) alignedtext
1 setlinewidth
0 0 0 nodecolor
newpath 131 786.5 moveto
364 786.5 lineto
stroke
0 0 0 nodecolor
7 /Times-Roman set_font
180 776.9 moveto 32 (main.res) alignedtext
1 setlinewidth
0 0 0 nodecolor
newpath 261 770.5 moveto
261 786.5 lineto
stroke
0 0 0 nodecolor
7 /Times-Roman set_font
310 776.9 moveto 5 (1) alignedtext
1 setlinewidth
0 0 0 nodecolor
newpath 131 770.5 moveto
364 770.5 lineto
stroke
0 0 0 nodecolor
7 /Times-Roman set_font
221 761.9 moveto 53 ( Instructions ) alignedtext
1 setlinewidth
0 0 0 nodecolor
newpath 131 754.5 moveto
364 754.5 lineto
stroke
0 0 0 nodecolor
7 /Times-Roman set_font
191.5 744.9 moveto 112 ([%0]  %1 = alloca int 32bit x 1) alignedtext
1 setlinewidth
0 0 0 nodecolor
newpath 131 738.5 moveto
364 738.5 lineto
stroke
0 0 0 nodecolor
7 /Times-Roman set_font
202.5 728.9 moveto 90 (%2 = alloca int 32bit x 1) alignedtext
1 setlinewidth
0 0 0 nodecolor
newpath 131 722.5 moveto
364 722.5 lineto
stroke
0 0 0 nodecolor
7 /Times-Roman set_font
202.5 712.9 moveto 90 (%3 = alloca int 32bit x 1) alignedtext
1 setlinewidth
0 0 0 nodecolor
newpath 131 706.5 moveto
364 706.5 lineto
stroke
0 0 0 nodecolor
7 /Times-Roman set_font
202.5 696.9 moveto 90 (%4 = alloca int 32bit x 1) alignedtext
1 setlinewidth
0 0 0 nodecolor
newpath 131 690.5 moveto
364 690.5 lineto
stroke
0 0 0 nodecolor
7 /Times-Roman set_font
142 680.9 moveto 211 (store Value: \(int 32bit\) 0 in Value: \(int 32bit*\) %1 \($NVM\)) alignedtext
1 setlinewidth
0 0 0 nodecolor
newpath 131 674.5 moveto
364 674.5 lineto
stroke
0 0 0 nodecolor
7 /Times-Roman set_font
142 664.9 moveto 211 (store Value: \(int 32bit\) 0 in Value: \(int 32bit*\) %2 \($NVM\)) alignedtext
1 setlinewidth
0 0 0 nodecolor
newpath 131 658.5 moveto
364 658.5 lineto
stroke
0 0 0 nodecolor
7 /Times-Roman set_font
142 648.9 moveto 211 (store Value: \(int 32bit\) 1 in Value: \(int 32bit*\) %3 \($NVM\)) alignedtext
1 setlinewidth
0 0 0 nodecolor
newpath 131 642.5 moveto
364 642.5 lineto
stroke
0 0 0 nodecolor
7 /Times-Roman set_font
142 632.9 moveto 211 (store Value: \(int 32bit\) 0 in Value: \(int 32bit*\) %4 \($NVM\)) alignedtext
1 setlinewidth
0 0 0 nodecolor
newpath 131 626.5 moveto
364 626.5 lineto
stroke
0 0 0 nodecolor
7 /Times-Roman set_font
171 616.9 moveto 153 (%5 = load  Value: \(int 32bit*\) %2 \($NVM\)) alignedtext
1 setlinewidth
0 0 0 nodecolor
newpath 131 610.5 moveto
364 610.5 lineto
stroke
0 0 0 nodecolor
7 /Times-Roman set_font
171 600.9 moveto 153 (%6 = load  Value: \(int 32bit*\) %3 \($NVM\)) alignedtext
1 setlinewidth
0 0 0 nodecolor
newpath 131 594.5 moveto
364 594.5 lineto
stroke
0 0 0 nodecolor
7 /Times-Roman set_font
139 584.9 moveto 217 (%7 = cmp sgt: Value: \(int 32bit\) %5 vs Value: \(int 32bit\) %6) alignedtext
1 setlinewidth
0 0 0 nodecolor
newpath 131 578.5 moveto
364 578.5 lineto
stroke
0 0 0 nodecolor
7 /Times-Roman set_font
210 568.4 moveto 75 (branch %7 %20 %40) alignedtext
grestore
% 8
gsave
1 setlinewidth
0 0 0 nodecolor
newpath 0 307.5 moveto
0 509.5 lineto
239 509.5 lineto
239 307.5 lineto
closepath stroke
0 0 0 nodecolor
15 /Times-Roman set_font
82.5 494.5 moveto 74 (%20\(%8\)) alignedtext
1 setlinewidth
0 0 0 nodecolor
newpath 0 484.5 moveto
239 484.5 lineto
stroke
0 0 0 nodecolor
7 /Times-Roman set_font
45 474.9 moveto 49 (Cost all NVM) alignedtext
1 setlinewidth
0 0 0 nodecolor
newpath 139 468.5 moveto
139 484.5 lineto
stroke
0 0 0 nodecolor
7 /Times-Roman set_font
184 474.9 moveto 10 (10) alignedtext
1 setlinewidth
0 0 0 nodecolor
newpath 0 468.5 moveto
239 468.5 lineto
stroke
0 0 0 nodecolor
7 /Times-Roman set_font
75 458.9 moveto 89 (Variables and nb_access) alignedtext
1 setlinewidth
0 0 0 nodecolor
newpath 0 452.5 moveto
239 452.5 lineto
stroke
0 0 0 nodecolor
7 /Times-Roman set_font
52 442.9 moveto 25 (main.a) alignedtext
1 setlinewidth
0 0 0 nodecolor
newpath 129 436.5 moveto
129 452.5 lineto
stroke
0 0 0 nodecolor
7 /Times-Roman set_font
181.5 442.9 moveto 5 (3) alignedtext
1 setlinewidth
0 0 0 nodecolor
newpath 0 436.5 moveto
239 436.5 lineto
stroke
0 0 0 nodecolor
7 /Times-Roman set_font
50.5 426.9 moveto 32 (main.res) alignedtext
1 setlinewidth
0 0 0 nodecolor
newpath 133 420.5 moveto
133 436.5 lineto
stroke
0 0 0 nodecolor
7 /Times-Roman set_font
183.5 426.9 moveto 5 (1) alignedtext
1 setlinewidth
0 0 0 nodecolor
newpath 0 420.5 moveto
239 420.5 lineto
stroke
0 0 0 nodecolor
7 /Times-Roman set_font
93 411.9 moveto 53 ( Instructions ) alignedtext
1 setlinewidth
0 0 0 nodecolor
newpath 0 404.5 moveto
239 404.5 lineto
stroke
0 0 0 nodecolor
7 /Times-Roman set_font
30 394.9 moveto 179 ([%20]  %9 = load  Value: \(int 32bit*\) %2 \($NVM\)) alignedtext
1 setlinewidth
0 0 0 nodecolor
newpath 0 388.5 moveto
239 388.5 lineto
stroke
0 0 0 nodecolor
7 /Times-Roman set_font
24.5 378.9 moveto 190 (%10 = add Value: \(int 32bit\) %9, Value: \(int 32bit\) 1) alignedtext
1 setlinewidth
0 0 0 nodecolor
newpath 0 372.5 moveto
239 372.5 lineto
stroke
0 0 0 nodecolor
7 /Times-Roman set_font
8 362.9 moveto 223 (store Value: \(int 32bit\) %10 in Value: \(int 32bit*\) %2 \($NVM\)) alignedtext
1 setlinewidth
0 0 0 nodecolor
newpath 0 356.5 moveto
239 356.5 lineto
stroke
0 0 0 nodecolor
7 /Times-Roman set_font
41 346.9 moveto 157 (%11 = load  Value: \(int 32bit*\) %2 \($NVM\)) alignedtext
1 setlinewidth
0 0 0 nodecolor
newpath 0 340.5 moveto
239 340.5 lineto
stroke
0 0 0 nodecolor
7 /Times-Roman set_font
8 330.9 moveto 223 (store Value: \(int 32bit\) %11 in Value: \(int 32bit*\) %4 \($NVM\)) alignedtext
1 setlinewidth
0 0 0 nodecolor
newpath 0 324.5 moveto
239 324.5 lineto
stroke
0 0 0 nodecolor
7 /Times-Roman set_font
76 314.4 moveto 87 (branch None %60 None) alignedtext
grestore
% 0->8
gsave
1 setlinewidth
0 0 0 edgecolor
newpath 181.063 561.4837 moveto
174.6085 545.5491 168.1871 529.6962 162.0618 514.5746 curveto
stroke
0 0 0 edgecolor
newpath 155.9119 512.7099 moveto
165.1804 508.9555 lineto
165.9313 510.8092 lineto
156.6628 514.5636 lineto
closepath fill
1 setlinewidth
solid
0 0 0 edgecolor
newpath 155.9119 512.7099 moveto
165.1804 508.9555 lineto
165.9313 510.8092 lineto
156.6628 514.5636 lineto
closepath stroke
1 setlinewidth
solid
0 0 0 edgecolor
newpath 160.1707 509.9058 moveto
162.0479 514.5401 lineto
stroke
0 0 0 edgecolor
14 /Times-Roman set_font
172.5 531.8 moveto 20 (C1) alignedtext
grestore
% 12
gsave
1 setlinewidth
0 0 0 nodecolor
newpath 257 331.5 moveto
257 485.5 lineto
496 485.5 lineto
496 331.5 lineto
closepath stroke
0 0 0 nodecolor
15 /Times-Roman set_font
334 470.5 moveto 85 (%40\(%12\)) alignedtext
1 setlinewidth
0 0 0 nodecolor
newpath 257 460.5 moveto
496 460.5 lineto
stroke
0 0 0 nodecolor
7 /Times-Roman set_font
303 450.9 moveto 49 (Cost all NVM) alignedtext
1 setlinewidth
0 0 0 nodecolor
newpath 398 444.5 moveto
398 460.5 lineto
stroke
0 0 0 nodecolor
7 /Times-Roman set_font
444.5 450.9 moveto 5 (4) alignedtext
1 setlinewidth
0 0 0 nodecolor
newpath 257 444.5 moveto
496 444.5 lineto
stroke
0 0 0 nodecolor
7 /Times-Roman set_font
332 434.9 moveto 89 (Variables and nb_access) alignedtext
1 setlinewidth
0 0 0 nodecolor
newpath 257 428.5 moveto
496 428.5 lineto
stroke
0 0 0 nodecolor
7 /Times-Roman set_font
309 418.9 moveto 25 (main.b) alignedtext
1 setlinewidth
0 0 0 nodecolor
newpath 386 412.5 moveto
386 428.5 lineto
stroke
0 0 0 nodecolor
7 /Times-Roman set_font
438.5 418.9 moveto 5 (1) alignedtext
1 setlinewidth
0 0 0 nodecolor
newpath 257 412.5 moveto
496 412.5 lineto
stroke
0 0 0 nodecolor
7 /Times-Roman set_font
307.5 402.9 moveto 32 (main.res) alignedtext
1 setlinewidth
0 0 0 nodecolor
newpath 390 396.5 moveto
390 412.5 lineto
stroke
0 0 0 nodecolor
7 /Times-Roman set_font
440.5 402.9 moveto 5 (1) alignedtext
1 setlinewidth
0 0 0 nodecolor
newpath 257 396.5 moveto
496 396.5 lineto
stroke
0 0 0 nodecolor
7 /Times-Roman set_font
350 387.9 moveto 53 ( Instructions ) alignedtext
1 setlinewidth
0 0 0 nodecolor
newpath 257 380.5 moveto
496 380.5 lineto
stroke
0 0 0 nodecolor
7 /Times-Roman set_font
284.5 370.9 moveto 184 ([%40]  %13 = load  Value: \(int 32bit*\) %3 \($NVM\)) alignedtext
1 setlinewidth
0 0 0 nodecolor
newpath 257 364.5 moveto
496 364.5 lineto
stroke
0 0 0 nodecolor
7 /Times-Roman set_font
265 354.9 moveto 223 (store Value: \(int 32bit\) %13 in Value: \(int 32bit*\) %4 \($NVM\)) alignedtext
1 setlinewidth
0 0 0 nodecolor
newpath 257 348.5 moveto
496 348.5 lineto
stroke
0 0 0 nodecolor
7 /Times-Roman set_font
314.5 338.4 moveto 124 (branch None %60 None [Useless]) alignedtext
grestore
% 0->12
gsave
1 setlinewidth
0 0 0 edgecolor
newpath 314.456 561.4837 moveto
324.5365 536.7905 334.5369 512.2934 343.4703 490.4099 curveto
stroke
0 0 0 edgecolor
newpath 340.353 484.8168 moveto
349.6113 488.5964 lineto
348.8553 490.448 lineto
339.5971 486.6684 lineto
closepath fill
1 setlinewidth
solid
0 0 0 edgecolor
newpath 340.353 484.8168 moveto
349.6113 488.5964 lineto
348.8553 490.448 lineto
339.5971 486.6684 lineto
closepath stroke
1 setlinewidth
solid
0 0 0 edgecolor
newpath 345.3601 485.7807 moveto
343.4703 490.4099 lineto
stroke
0 0 0 edgecolor
14 /Times-Roman set_font
326.5 531.8 moveto 20 (C2) alignedtext
grestore
% 14
gsave
1 setlinewidth
0 0 0 nodecolor
newpath 147.5 133.5 moveto
147.5 255.5 lineto
347.5 255.5 lineto
347.5 133.5 lineto
closepath stroke
0 0 0 nodecolor
15 /Times-Roman set_font
205 240.5 moveto 85 (%60\(%14\)) alignedtext
1 setlinewidth
0 0 0 nodecolor
newpath 147.5 230.5 moveto
347.5 230.5 lineto
stroke
0 0 0 nodecolor
7 /Times-Roman set_font
182.5 220.9 moveto 49 (Cost all NVM) alignedtext
1 setlinewidth
0 0 0 nodecolor
newpath 266.5 214.5 moveto
266.5 230.5 lineto
stroke
0 0 0 nodecolor
7 /Times-Roman set_font
302 220.9 moveto 10 (10) alignedtext
1 setlinewidth
0 0 0 nodecolor
newpath 147.5 214.5 moveto
347.5 214.5 lineto
stroke
0 0 0 nodecolor
7 /Times-Roman set_font
203 204.9 moveto 89 (Variables and nb_access) alignedtext
1 setlinewidth
0 0 0 nodecolor
newpath 147.5 198.5 moveto
347.5 198.5 lineto
stroke
0 0 0 nodecolor
7 /Times-Roman set_font
188 188.9 moveto 32 (main.res) alignedtext
1 setlinewidth
0 0 0 nodecolor
newpath 260.5 182.5 moveto
260.5 198.5 lineto
stroke
0 0 0 nodecolor
7 /Times-Roman set_font
301.5 188.9 moveto 5 (1) alignedtext
1 setlinewidth
0 0 0 nodecolor
newpath 147.5 182.5 moveto
347.5 182.5 lineto
stroke
0 0 0 nodecolor
7 /Times-Roman set_font
221 173.9 moveto 53 ( Instructions ) alignedtext
1 setlinewidth
0 0 0 nodecolor
newpath 147.5 166.5 moveto
347.5 166.5 lineto
stroke
0 0 0 nodecolor
7 /Times-Roman set_font
155.5 156.9 moveto 184 ([%60]  %15 = load  Value: \(int 32bit*\) %4 \($NVM\)) alignedtext
1 setlinewidth
0 0 0 nodecolor
newpath 147.5 150.5 moveto
347.5 150.5 lineto
stroke
0 0 0 nodecolor
7 /Times-Roman set_font
182.5 140.4 moveto 130 (return Value: \(int 32bit\) %15 \($VM\)) alignedtext
grestore
% 8->14
gsave
1 setlinewidth
0 0 0 edgecolor
newpath 179.9391 307.3977 moveto
189.6183 291.3666 199.4064 275.155 208.4143 260.2358 curveto
stroke
0 0 0 edgecolor
newpath 206.3865 253.9205 moveto
214.9472 259.0892 lineto
213.9135 260.8014 lineto
205.3528 255.6326 lineto
closepath fill
1 setlinewidth
solid
0 0 0 edgecolor
newpath 206.3865 253.9205 moveto
214.9472 259.0892 lineto
213.9135 260.8014 lineto
205.3528 255.6326 lineto
closepath stroke
1 setlinewidth
solid
0 0 0 edgecolor
newpath 211.1838 255.6488 moveto
208.5994 259.9291 lineto
stroke
0 0 0 edgecolor
14 /Times-Roman set_font
199.5 277.8 moveto 20 (C4) alignedtext
grestore
% 12->14
gsave
1 setlinewidth
0 0 0 edgecolor
newpath 330.1103 331.2626 moveto
315.9572 308.0034 300.5382 282.6636 286.8949 260.2421 curveto
stroke
0 0 0 edgecolor
newpath 280.4393 259.2516 moveto
288.9821 254.0533 lineto
290.0217 255.7618 lineto
281.4789 260.9601 lineto
closepath fill
1 setlinewidth
solid
0 0 0 edgecolor
newpath 280.4393 259.2516 moveto
288.9821 254.0533 lineto
290.0217 255.7618 lineto
281.4789 260.9601 lineto
closepath stroke
1 setlinewidth
solid
0 0 0 edgecolor
newpath 284.1908 255.7981 moveto
286.79 260.0695 lineto
stroke
0 0 0 edgecolor
14 /Times-Roman set_font
303.5 277.8 moveto 20 (C5) alignedtext
grestore
% END_main
gsave
1 setlinewidth
0 0 0 nodecolor
newpath 164 23.5 moveto
164 81.5 lineto
331 81.5 lineto
331 23.5 lineto
closepath stroke
0 0 0 nodecolor
15 /Times-Roman set_font
172 66.5 moveto 151 (%41\(%END_main\)) alignedtext
1 setlinewidth
0 0 0 nodecolor
newpath 164 56.5 moveto
331 56.5 lineto
stroke
0 0 0 nodecolor
7 /Times-Roman set_font
192 46.9 moveto 49 (Cost all NVM) alignedtext
1 setlinewidth
0 0 0 nodecolor
newpath 269 40.5 moveto
269 56.5 lineto
stroke
0 0 0 nodecolor
7 /Times-Roman set_font
297.5 46.9 moveto 5 (0) alignedtext
1 setlinewidth
0 0 0 nodecolor
newpath 164 40.5 moveto
331 40.5 lineto
stroke
0 0 0 nodecolor
7 /Times-Roman set_font
221 31.4 moveto 53 ( Instructions ) alignedtext
grestore
% 14->END_main
gsave
1 setlinewidth
0 0 0 edgecolor
newpath 247.5 133.3149 moveto
247.5 117.3417 247.5 100.6729 247.5 86.7247 curveto
stroke
0 0 0 edgecolor
newpath 242.5 82.7154 moveto
252.5 82.7152 lineto
252.5001 84.7152 lineto
242.5001 84.7154 lineto
closepath fill
1 setlinewidth
solid
0 0 0 edgecolor
newpath 242.5 82.7154 moveto
252.5 82.7152 lineto
252.5001 84.7152 lineto
242.5001 84.7154 lineto
closepath stroke
1 setlinewidth
solid
0 0 0 edgecolor
newpath 247.5 81.7153 moveto
247.5001 86.7153 lineto
stroke
0 0 0 edgecolor
14 /Times-Roman set_font
247.5 103.8 moveto 20 (C6) alignedtext
grestore
% START_main
gsave
1 setlinewidth
0 0 0 nodecolor
newpath 154.5 943.5 moveto
154.5 1001.5 lineto
340.5 1001.5 lineto
340.5 943.5 lineto
closepath stroke
0 0 0 nodecolor
15 /Times-Roman set_font
162.5 986.5 moveto 170 (%21\(%START_main\)) alignedtext
1 setlinewidth
0 0 0 nodecolor
newpath 154.5 976.5 moveto
340.5 976.5 lineto
stroke
0 0 0 nodecolor
7 /Times-Roman set_font
187.5 966.9 moveto 49 (Cost all NVM) alignedtext
1 setlinewidth
0 0 0 nodecolor
newpath 269.5 960.5 moveto
269.5 976.5 lineto
stroke
0 0 0 nodecolor
7 /Times-Roman set_font
302.5 966.9 moveto 5 (0) alignedtext
1 setlinewidth
0 0 0 nodecolor
newpath 154.5 960.5 moveto
340.5 960.5 lineto
stroke
0 0 0 nodecolor
7 /Times-Roman set_font
221 951.4 moveto 53 ( Instructions ) alignedtext
grestore
% START_main->0
gsave
1 setlinewidth
0 0 0 edgecolor
newpath 247.5 943.0326 moveto
247.5 930.3352 247.5 914.2597 247.5 896.633 curveto
stroke
0 0 0 edgecolor
newpath 242.5 892.6219 moveto
252.5 892.6217 lineto
252.5001 894.6217 lineto
242.5001 894.6219 lineto
closepath fill
1 setlinewidth
solid
0 0 0 edgecolor
newpath 242.5 892.6219 moveto
252.5 892.6217 lineto
252.5001 894.6217 lineto
242.5001 894.6219 lineto
closepath stroke
1 setlinewidth
solid
0 0 0 edgecolor
newpath 247.5 891.6218 moveto
247.5001 896.6218 lineto
stroke
0 0 0 edgecolor
14 /Times-Roman set_font
247.5 913.8 moveto 20 (C3) alignedtext
grestore
endpage
showpage
grestore
%%PageTrailer
%%EndPage: 1
%%Trailer
end
restore
%%EOF
